%TGIF 4.2.5-QPL
state(0,37,100.000,0,0,0,16,1,0,2,2,0,0,0,0,1,0,'Courier',0,80640,0,0,1,5,0,0,0,1,0,16,0,0,1,1,1,1,1050,1485,1,0,2880,0).
%
% @(#)$Header$
% %W%
%
unit("1 pixel/pixel").
color_info(51,65535,0,[
	"Black", 0, 0, 0, 0, 0, 0, 1,
	"White", 65535, 65535, 65535, 65535, 65535, 65535, 1,
	"#000080", 0, 0, 32896, 0, 0, 32768, 1,
	"#008000", 0, 32896, 0, 0, 32768, 0, 1,
	"#008080", 0, 32896, 32896, 0, 32768, 32768, 1,
	"#800000", 32896, 0, 0, 32768, 0, 0, 1,
	"#800080", 32896, 0, 32896, 32768, 0, 32768, 1,
	"#ff8000", 65535, 32896, 0, 65280, 32768, 0, 1,
	"#808080", 32896, 32896, 32896, 32768, 32768, 32768, 1,
	"#c0c0c0", 49344, 49344, 49344, 49152, 49152, 49152, 1,
	"#0000ff", 0, 0, 65535, 0, 0, 65280, 1,
	"#00ff00", 0, 65535, 0, 0, 65280, 0, 1,
	"#00ffff", 0, 65535, 65535, 0, 65280, 65280, 1,
	"#ff0000", 65535, 0, 0, 65280, 0, 0, 1,
	"#ff00ff", 65535, 0, 65535, 65280, 0, 65280, 1,
	"#ffff00", 65535, 65535, 0, 65280, 65280, 0, 1,
	"#4c4c4c", 19532, 19532, 19532, 19456, 19456, 19456, 1,
	"#b3b3b3", 46003, 46003, 46003, 45824, 45824, 45824, 1,
	"#e6e6e6", 59110, 59110, 59110, 58880, 58880, 58880, 1,
	"#dc2300", 56540, 8995, 0, 56320, 8960, 0, 1,
	"#ff3333", 65535, 13107, 13107, 65280, 13056, 13056, 1,
	"#b84747", 47288, 18247, 18247, 47104, 18176, 18176, 1,
	"#99284c", 39321, 10280, 19532, 39168, 10240, 19456, 1,
	"#94476b", 38036, 18247, 27499, 37888, 18176, 27392, 1,
	"#9966cc", 39321, 26214, 52428, 39168, 26112, 52224, 1,
	"#6b2394", 27499, 8995, 38036, 27392, 8960, 37888, 1,
	"#5e11a6", 24158, 4369, 42662, 24064, 4352, 42496, 1,
	"#4700b8", 18247, 0, 47288, 18176, 0, 47104, 1,
	"#2323dc", 8995, 8995, 56540, 8960, 8960, 56320, 1,
	"#0099ff", 0, 39321, 65535, 0, 39168, 65280, 1,
	"#99ccff", 39321, 52428, 65535, 39168, 52224, 65280, 1,
	"#00dcff", 0, 56540, 65535, 0, 56320, 65280, 1,
	"#23b8dc", 8995, 47288, 56540, 8960, 47104, 56320, 1,
	"#33a3a3", 13107, 41891, 41891, 13056, 41728, 41728, 1,
	"#355e00", 13621, 24158, 0, 13568, 24064, 0, 1,
	"#7da647", 32125, 42662, 18247, 32000, 42496, 18176, 1,
	"#00ae00", 0, 44718, 0, 0, 44544, 0, 1,
	"#3deb3d", 15677, 60395, 15677, 15616, 60160, 15616, 1,
	"#ffff99", 65535, 65535, 39321, 65280, 65280, 39168, 1,
	"#e6e64c", 59110, 59110, 19532, 58880, 58880, 19456, 1,
	"#b3b300", 46003, 46003, 0, 45824, 45824, 0, 1,
	"#666600", 26214, 26214, 0, 26112, 26112, 0, 1,
	"#4c1900", 19532, 6425, 0, 19456, 6400, 0, 1,
	"#663300", 26214, 13107, 0, 26112, 13056, 0, 1,
	"#804c19", 32896, 19532, 6425, 32768, 19456, 6400, 1,
	"#996633", 39321, 26214, 13107, 39168, 26112, 13056, 1,
	"#cc6633", 52428, 26214, 13107, 52224, 26112, 13056, 1,
	"#ff6633", 65535, 26214, 13107, 65280, 26112, 13056, 1,
	"#ff9966", 65535, 39321, 26214, 65280, 39168, 26112, 1,
	"#ffcc99", 65535, 52428, 39321, 65280, 52224, 39168, 1,
	"blue", 0, 0, 65535, 0, 0, 65535, 1
]).
script_frac("0.6").
fg_bg_colors('Black','white').
dont_reencode("FFDingbests:ZapfDingbats").
objshadow_info('#c0c0c0',2,2).
rotate_pivot(0,0,0,0).
spline_tightness(1).
page(1,"",1,'').
group([
box('#ff8000','',70,50,940,1220,0,2,1,6696,0,0,0,0,0,'2',0,[
]),
poly('#ff8000','',2,[
	100,50,100,1220],0,1,1,6695,0,0,0,0,0,0,0,'1',0,0,
    "0","",[
    0,8,3,0,'8','3','0'],[0,8,3,0,'8','3','0'],[
]),
poly('#ff8000','',2,[
	130,50,130,1220],0,1,1,6694,0,0,0,0,0,0,0,'1',0,0,
    "0","",[
    0,8,3,0,'8','3','0'],[0,8,3,0,'8','3','0'],[
]),
poly('#ff8000','',2,[
	160,50,160,1220],0,1,1,6693,0,0,0,0,0,0,0,'1',0,0,
    "0","",[
    0,8,3,0,'8','3','0'],[0,8,3,0,'8','3','0'],[
]),
poly('#ff8000','',2,[
	190,50,190,1220],0,1,1,6692,0,0,0,0,0,0,0,'1',0,0,
    "0","",[
    0,8,3,0,'8','3','0'],[0,8,3,0,'8','3','0'],[
]),
poly('#ff8000','',2,[
	220,50,220,1220],0,1,1,6691,0,0,0,0,0,0,0,'1',0,0,
    "0","",[
    0,8,3,0,'8','3','0'],[0,8,3,0,'8','3','0'],[
]),
poly('#ff8000','',2,[
	250,50,250,1220],0,1,1,6690,0,0,0,0,0,0,0,'1',0,0,
    "0","",[
    0,8,3,0,'8','3','0'],[0,8,3,0,'8','3','0'],[
]),
poly('#ff8000','',2,[
	280,50,280,1220],0,1,1,6689,0,0,0,0,0,0,0,'1',0,0,
    "0","",[
    0,8,3,0,'8','3','0'],[0,8,3,0,'8','3','0'],[
]),
poly('#ff8000','',2,[
	310,50,310,1220],0,1,1,6688,0,0,0,0,0,0,0,'1',0,0,
    "0","",[
    0,8,3,0,'8','3','0'],[0,8,3,0,'8','3','0'],[
]),
poly('#ff8000','',2,[
	340,50,340,1220],0,1,1,6687,0,0,0,0,0,0,0,'1',0,0,
    "0","",[
    0,8,3,0,'8','3','0'],[0,8,3,0,'8','3','0'],[
]),
poly('#ff8000','',2,[
	370,50,370,1220],0,1,1,6686,0,0,0,0,0,0,0,'1',0,0,
    "0","",[
    0,8,3,0,'8','3','0'],[0,8,3,0,'8','3','0'],[
]),
poly('#ff8000','',2,[
	400,50,400,1220],0,1,1,6685,0,0,0,0,0,0,0,'1',0,0,
    "0","",[
    0,8,3,0,'8','3','0'],[0,8,3,0,'8','3','0'],[
]),
poly('#ff8000','',2,[
	430,50,430,1220],0,1,1,6684,0,0,0,0,0,0,0,'1',0,0,
    "0","",[
    0,8,3,0,'8','3','0'],[0,8,3,0,'8','3','0'],[
]),
poly('#ff8000','',2,[
	460,50,460,1220],0,1,1,6683,0,0,0,0,0,0,0,'1',0,0,
    "0","",[
    0,8,3,0,'8','3','0'],[0,8,3,0,'8','3','0'],[
]),
poly('#ff8000','',2,[
	490,50,490,1220],0,1,1,6682,0,0,0,0,0,0,0,'1',0,0,
    "0","",[
    0,8,3,0,'8','3','0'],[0,8,3,0,'8','3','0'],[
]),
poly('#ff8000','',2,[
	520,50,520,1220],0,1,1,6681,0,0,0,0,0,0,0,'1',0,0,
    "0","",[
    0,8,3,0,'8','3','0'],[0,8,3,0,'8','3','0'],[
]),
poly('#ff8000','',2,[
	550,50,550,1220],0,1,1,6680,0,0,0,0,0,0,0,'1',0,0,
    "0","",[
    0,8,3,0,'8','3','0'],[0,8,3,0,'8','3','0'],[
]),
poly('#ff8000','',2,[
	580,50,580,1220],0,1,1,6679,0,0,0,0,0,0,0,'1',0,0,
    "0","",[
    0,8,3,0,'8','3','0'],[0,8,3,0,'8','3','0'],[
]),
poly('#ff8000','',2,[
	610,50,610,1220],0,1,1,6678,0,0,0,0,0,0,0,'1',0,0,
    "0","",[
    0,8,3,0,'8','3','0'],[0,8,3,0,'8','3','0'],[
]),
poly('#ff8000','',2,[
	640,50,640,1220],0,1,1,6677,0,0,0,0,0,0,0,'1',0,0,
    "0","",[
    0,8,3,0,'8','3','0'],[0,8,3,0,'8','3','0'],[
]),
poly('#ff8000','',2,[
	670,50,670,1220],0,1,1,6676,0,0,0,0,0,0,0,'1',0,0,
    "0","",[
    0,8,3,0,'8','3','0'],[0,8,3,0,'8','3','0'],[
]),
poly('#ff8000','',2,[
	700,50,700,1220],0,1,1,6675,0,0,0,0,0,0,0,'1',0,0,
    "0","",[
    0,8,3,0,'8','3','0'],[0,8,3,0,'8','3','0'],[
]),
poly('#ff8000','',2,[
	730,50,730,1220],0,1,1,6674,0,0,0,0,0,0,0,'1',0,0,
    "0","",[
    0,8,3,0,'8','3','0'],[0,8,3,0,'8','3','0'],[
]),
poly('#ff8000','',2,[
	760,50,760,1220],0,1,1,6673,0,0,0,0,0,0,0,'1',0,0,
    "0","",[
    0,8,3,0,'8','3','0'],[0,8,3,0,'8','3','0'],[
]),
poly('#ff8000','',2,[
	790,50,790,1220],0,1,1,6672,0,0,0,0,0,0,0,'1',0,0,
    "0","",[
    0,8,3,0,'8','3','0'],[0,8,3,0,'8','3','0'],[
]),
poly('#ff8000','',2,[
	820,50,820,1220],0,1,1,6671,0,0,0,0,0,0,0,'1',0,0,
    "0","",[
    0,8,3,0,'8','3','0'],[0,8,3,0,'8','3','0'],[
]),
poly('#ff8000','',2,[
	850,50,850,1220],0,1,1,6670,0,0,0,0,0,0,0,'1',0,0,
    "0","",[
    0,8,3,0,'8','3','0'],[0,8,3,0,'8','3','0'],[
]),
poly('#ff8000','',2,[
	880,50,880,1220],0,1,1,6669,0,0,0,0,0,0,0,'1',0,0,
    "0","",[
    0,8,3,0,'8','3','0'],[0,8,3,0,'8','3','0'],[
]),
poly('#ff8000','',2,[
	910,50,910,1220],0,1,1,6668,0,0,0,0,0,0,0,'1',0,0,
    "0","",[
    0,8,3,0,'8','3','0'],[0,8,3,0,'8','3','0'],[
]),
poly('#ff8000','',2,[
	940,50,940,1220],0,1,1,6667,0,0,0,0,0,0,0,'1',0,0,
    "0","",[
    0,8,3,0,'8','3','0'],[0,8,3,0,'8','3','0'],[
]),
poly('#ff8000','',2,[
	70,80,940,80],0,1,1,6666,0,0,0,0,0,0,0,'1',0,0,
    "0","",[
    0,8,3,0,'8','3','0'],[0,8,3,0,'8','3','0'],[
]),
poly('#ff8000','',2,[
	70,1190,940,1190],0,1,1,6665,0,0,0,0,0,0,0,'1',0,0,
    "0","",[
    0,8,3,0,'8','3','0'],[0,8,3,0,'8','3','0'],[
]),
box('#ff8000','',70,50,160,140,0,2,1,6664,0,0,0,0,0,'2',0,[
]),
box('#ff8000','',850,50,940,140,0,2,1,6663,0,0,0,0,0,'2',0,[
]),
box('#ff8000','',70,1130,160,1220,0,2,1,6662,0,0,0,0,0,'2',0,[
]),
box('#ff8000','',850,1130,940,1220,0,2,1,6661,0,0,0,0,0,'2',0,[
]),
oval('#ff8000','',90,70,140,120,0,2,1,6660,0,0,0,0,0,'2',0,[
]),
oval('#ff8000','',870,70,920,120,0,2,1,6659,0,0,0,0,0,'2',0,[
]),
oval('#ff8000','',90,1150,140,1200,0,2,1,6658,0,0,0,0,0,'2',0,[
]),
oval('#ff8000','',870,1150,920,1200,0,2,1,6657,0,0,0,0,0,'2',0,[
]),
text('#ff8000',80,29,1,0,1,8,14,6656,11,3,0,0,0,0,-65534,8,14,0,0,"",0,0,0,0,40,'',[
minilines(8,14,0,0,0,0,0,[
mini_line(8,11,3,0,0,0,[
str_block(0,8,11,3,0,-1,0,0,0,[
str_seg('#ff8000','Courier',0,80640,8,11,3,0,-1,0,0,0,0,0,
	"1")])
])
])]),
text('#ff8000',205,29,1,0,1,8,14,6655,11,3,0,0,0,0,-65534,8,14,0,0,"",0,0,0,0,40,'',[
minilines(8,14,0,0,0,0,0,[
mini_line(8,11,3,0,0,0,[
str_block(0,8,11,3,0,-1,0,0,0,[
str_seg('#ff8000','Courier',0,80640,8,11,3,0,-1,0,0,0,0,0,
	"5")])
])
])]),
text('#ff8000',350,29,1,0,1,16,14,6654,11,3,0,0,0,0,-65534,16,14,0,0,"",0,0,0,0,40,'',[
minilines(16,14,0,0,0,0,0,[
mini_line(16,11,3,0,0,0,[
str_block(0,16,11,3,0,-1,0,0,0,[
str_seg('#ff8000','Courier',0,80640,16,11,3,0,-1,0,0,0,0,0,
	"10")])
])
])]),
text('#ff8000',500,29,1,0,1,16,14,6653,11,3,0,0,0,0,-65534,16,14,0,0,"",0,0,0,0,40,'',[
minilines(16,14,0,0,0,0,0,[
mini_line(16,11,3,0,0,0,[
str_block(0,16,11,3,0,-1,0,0,0,[
str_seg('#ff8000','Courier',0,80640,16,11,3,0,-1,0,0,0,0,0,
	"15")])
])
])]),
text('#ff8000',650,29,1,0,1,16,14,6652,11,3,0,0,0,0,-65534,16,14,0,0,"",0,0,0,0,40,'',[
minilines(16,14,0,0,0,0,0,[
mini_line(16,11,3,0,0,0,[
str_block(0,16,11,3,0,-1,0,0,0,[
str_seg('#ff8000','Courier',0,80640,16,11,3,0,-1,0,0,0,0,0,
	"20")])
])
])]),
text('#ff8000',800,29,1,0,1,16,14,6651,11,3,0,0,0,0,-65534,16,14,0,0,"",0,0,0,0,40,'',[
minilines(16,14,0,0,0,0,0,[
mini_line(16,11,3,0,0,0,[
str_block(0,16,11,3,0,-1,0,0,0,[
str_seg('#ff8000','Courier',0,80640,16,11,3,0,-1,0,0,0,0,0,
	"25")])
])
])]),
text('#ff8000',920,29,1,0,1,16,14,6650,11,3,0,0,0,0,-65534,16,14,0,0,"",0,0,0,0,40,'',[
minilines(16,14,0,0,0,0,0,[
mini_line(16,11,3,0,0,0,[
str_block(0,16,11,3,0,-1,0,0,0,[
str_seg('#ff8000','Courier',0,80640,16,11,3,0,-1,0,0,0,0,0,
	"29")])
])
])]),
poly('#ff8000','',2,[
	70,50,70,25],0,1,1,6649,0,0,0,0,0,0,0,'1',0,0,
    "0","",[
    0,8,3,0,'8','3','0'],[0,8,3,0,'8','3','0'],[
]),
poly('#ff8000','',2,[
	220,50,220,25],0,1,1,6648,0,0,0,0,0,0,0,'1',0,0,
    "0","",[
    0,8,3,0,'8','3','0'],[0,8,3,0,'8','3','0'],[
]),
poly('#ff8000','',2,[
	370,50,370,25],0,1,1,6647,0,0,0,0,0,0,0,'1',0,0,
    "0","",[
    0,8,3,0,'8','3','0'],[0,8,3,0,'8','3','0'],[
]),
poly('#ff8000','',2,[
	520,55,520,25],0,1,1,6646,0,0,0,0,0,0,0,'1',0,0,
    "0","",[
    0,8,3,0,'8','3','0'],[0,8,3,0,'8','3','0'],[
]),
poly('#ff8000','',2,[
	670,50,670,25],0,1,1,6645,0,0,0,0,0,0,0,'1',0,0,
    "0","",[
    0,8,3,0,'8','3','0'],[0,8,3,0,'8','3','0'],[
]),
poly('#ff8000','',2,[
	820,50,820,25],0,1,1,6644,0,0,0,0,0,0,0,'1',0,0,
    "0","",[
    0,8,3,0,'8','3','0'],[0,8,3,0,'8','3','0'],[
]),
poly('#ff8000','',2,[
	940,50,940,25],0,1,1,6643,0,0,0,0,0,0,0,'1',0,0,
    "0","",[
    0,8,3,0,'8','3','0'],[0,8,3,0,'8','3','0'],[
]),
text('#ff8000',55,59,1,0,1,8,14,6642,11,3,0,0,0,0,-65534,8,14,0,0,"",0,0,0,0,70,'',[
minilines(8,14,0,0,0,0,0,[
mini_line(8,11,3,0,0,0,[
str_block(0,8,11,3,0,-1,0,0,0,[
str_seg('#ff8000','Courier',0,80640,8,11,3,0,-1,0,0,0,0,0,
	"1")])
])
])]),
text('#ff8000',55,174,1,0,1,8,14,6641,11,3,0,0,0,0,-65534,8,14,0,0,"",0,0,0,0,185,'',[
minilines(8,14,0,0,0,0,0,[
mini_line(8,11,3,0,0,0,[
str_block(0,8,11,3,0,-1,0,0,0,[
str_seg('#ff8000','Courier',0,80640,8,11,3,0,-1,0,0,0,0,0,
	"5")])
])
])]),
text('#ff8000',50,324,1,0,1,16,14,6640,11,3,0,0,0,0,-65534,16,14,0,0,"",0,0,0,0,335,'',[
minilines(16,14,0,0,0,0,0,[
mini_line(16,11,3,0,0,0,[
str_block(0,16,11,3,0,-1,0,0,0,[
str_seg('#ff8000','Courier',0,80640,16,11,3,0,-1,0,0,0,0,0,
	"10")])
])
])]),
text('#ff8000',50,479,1,0,1,16,14,6639,11,3,0,0,0,0,-65534,16,14,0,0,"",0,0,0,0,490,'',[
minilines(16,14,0,0,0,0,0,[
mini_line(16,11,3,0,0,0,[
str_block(0,16,11,3,0,-1,0,0,0,[
str_seg('#ff8000','Courier',0,80640,16,11,3,0,-1,0,0,0,0,0,
	"15")])
])
])]),
text('#ff8000',50,624,1,0,1,16,14,6638,11,3,0,0,0,0,-65534,16,14,0,0,"",0,0,0,0,635,'',[
minilines(16,14,0,0,0,0,0,[
mini_line(16,11,3,0,0,0,[
str_block(0,16,11,3,0,-1,0,0,0,[
str_seg('#ff8000','Courier',0,80640,16,11,3,0,-1,0,0,0,0,0,
	"20")])
])
])]),
text('#ff8000',50,779,1,0,1,16,14,6637,11,3,0,0,0,0,-65534,16,14,0,0,"",0,0,0,0,790,'',[
minilines(16,14,0,0,0,0,0,[
mini_line(16,11,3,0,0,0,[
str_block(0,16,11,3,0,-1,0,0,0,[
str_seg('#ff8000','Courier',0,80640,16,11,3,0,-1,0,0,0,0,0,
	"25")])
])
])]),
text('#ff8000',50,929,1,0,1,16,14,6636,11,3,0,0,0,0,-65534,16,14,0,0,"",0,0,0,0,940,'',[
minilines(16,14,0,0,0,0,0,[
mini_line(16,11,3,0,0,0,[
str_block(0,16,11,3,0,-1,0,0,0,[
str_seg('#ff8000','Courier',0,80640,16,11,3,0,-1,0,0,0,0,0,
	"30")])
])
])]),
text('#ff8000',50,1079,1,0,1,16,14,6635,11,3,0,0,0,0,-65534,16,14,0,0,"",0,0,0,0,1090,'',[
minilines(16,14,0,0,0,0,0,[
mini_line(16,11,3,0,0,0,[
str_block(0,16,11,3,0,-1,0,0,0,[
str_seg('#ff8000','Courier',0,80640,16,11,3,0,-1,0,0,0,0,0,
	"35")])
])
])]),
text('#ff8000',50,1199,1,0,1,16,14,6634,11,3,0,0,0,0,-65534,16,14,0,0,"",0,0,0,0,1210,'',[
minilines(16,14,0,0,0,0,0,[
mini_line(16,11,3,0,0,0,[
str_block(0,16,11,3,0,-1,0,0,0,[
str_seg('#ff8000','Courier',0,80640,16,11,3,0,-1,0,0,0,0,0,
	"39")])
])
])]),
poly('#ff8000','',2,[
	70,200,45,200],0,1,1,6633,0,0,0,0,0,0,0,'1',0,0,
    "0","",[
    0,8,3,0,'8','3','0'],[0,8,3,0,'8','3','0'],[
]),
poly('#ff8000','',2,[
	70,350,45,350],0,1,1,6632,0,0,0,0,0,0,0,'1',0,0,
    "0","",[
    0,8,3,0,'8','3','0'],[0,8,3,0,'8','3','0'],[
]),
poly('#ff8000','',2,[
	70,500,45,500],0,1,1,6631,0,0,0,0,0,0,0,'1',0,0,
    "0","",[
    0,8,3,0,'8','3','0'],[0,8,3,0,'8','3','0'],[
]),
poly('#ff8000','',2,[
	70,650,45,650],0,1,1,6630,0,0,0,0,0,0,0,'1',0,0,
    "0","",[
    0,8,3,0,'8','3','0'],[0,8,3,0,'8','3','0'],[
]),
poly('#ff8000','',2,[
	70,800,45,800],0,1,1,6629,0,0,0,0,0,0,0,'1',0,0,
    "0","",[
    0,8,3,0,'8','3','0'],[0,8,3,0,'8','3','0'],[
]),
poly('#ff8000','',2,[
	70,950,45,950],0,1,1,6628,0,0,0,0,0,0,0,'1',0,0,
    "0","",[
    0,8,3,0,'8','3','0'],[0,8,3,0,'8','3','0'],[
]),
poly('#ff8000','',2,[
	70,1100,45,1100],0,1,1,6627,0,0,0,0,0,0,0,'1',0,0,
    "0","",[
    0,8,3,0,'8','3','0'],[0,8,3,0,'8','3','0'],[
]),
poly('#ff8000','',2,[
	70,1220,45,1220],0,1,1,6626,0,0,0,0,0,0,0,'1',0,0,
    "0","",[
    0,8,3,0,'8','3','0'],[0,8,3,0,'8','3','0'],[
]),
poly('#ff8000','',2,[
	70,50,45,50],0,1,1,6625,0,0,0,0,0,0,0,'1',0,0,
    "0","",[
    0,8,3,0,'8','3','0'],[0,8,3,0,'8','3','0'],[
]),
poly('#ff8000','',2,[
	70,110,940,110],0,1,1,6624,0,0,0,0,0,0,0,'1',0,0,
    "0","",[
    0,8,3,0,'8','3','0'],[0,8,3,0,'8','3','0'],[
]),
poly('#ff8000','',2,[
	70,140,940,140],0,1,1,6623,0,0,0,0,0,0,0,'1',0,0,
    "0","",[
    0,8,3,0,'8','3','0'],[0,8,3,0,'8','3','0'],[
]),
poly('#ff8000','',2,[
	70,170,940,170],0,1,1,6622,0,0,0,0,0,0,0,'1',0,0,
    "0","",[
    0,8,3,0,'8','3','0'],[0,8,3,0,'8','3','0'],[
]),
poly('#ff8000','',2,[
	70,200,940,200],0,1,1,6621,0,0,0,0,0,0,0,'1',0,0,
    "0","",[
    0,8,3,0,'8','3','0'],[0,8,3,0,'8','3','0'],[
]),
poly('#ff8000','',2,[
	70,230,940,230],0,1,1,6620,0,0,0,0,0,0,0,'1',0,0,
    "0","",[
    0,8,3,0,'8','3','0'],[0,8,3,0,'8','3','0'],[
]),
poly('#ff8000','',2,[
	70,260,940,260],0,1,1,6619,0,0,0,0,0,0,0,'1',0,0,
    "0","",[
    0,8,3,0,'8','3','0'],[0,8,3,0,'8','3','0'],[
]),
poly('#ff8000','',2,[
	70,290,940,290],0,1,1,6618,0,0,0,0,0,0,0,'1',0,0,
    "0","",[
    0,8,3,0,'8','3','0'],[0,8,3,0,'8','3','0'],[
]),
poly('#ff8000','',2,[
	70,320,940,320],0,1,1,6617,0,0,0,0,0,0,0,'1',0,0,
    "0","",[
    0,8,3,0,'8','3','0'],[0,8,3,0,'8','3','0'],[
]),
poly('#ff8000','',2,[
	70,350,940,350],0,1,1,6616,0,0,0,0,0,0,0,'1',0,0,
    "0","",[
    0,8,3,0,'8','3','0'],[0,8,3,0,'8','3','0'],[
]),
poly('#ff8000','',2,[
	70,380,940,380],0,1,1,6615,0,0,0,0,0,0,0,'1',0,0,
    "0","",[
    0,8,3,0,'8','3','0'],[0,8,3,0,'8','3','0'],[
]),
poly('#ff8000','',2,[
	70,410,940,410],0,1,1,6614,0,0,0,0,0,0,0,'1',0,0,
    "0","",[
    0,8,3,0,'8','3','0'],[0,8,3,0,'8','3','0'],[
]),
poly('#ff8000','',2,[
	70,440,940,440],0,1,1,6613,0,0,0,0,0,0,0,'1',0,0,
    "0","",[
    0,8,3,0,'8','3','0'],[0,8,3,0,'8','3','0'],[
]),
poly('#ff8000','',2,[
	70,470,940,470],0,1,1,6612,0,0,0,0,0,0,0,'1',0,0,
    "0","",[
    0,8,3,0,'8','3','0'],[0,8,3,0,'8','3','0'],[
]),
poly('#ff8000','',2,[
	70,500,940,500],0,1,1,6611,0,0,0,0,0,0,0,'1',0,0,
    "0","",[
    0,8,3,0,'8','3','0'],[0,8,3,0,'8','3','0'],[
]),
poly('#ff8000','',2,[
	70,530,940,530],0,1,1,6610,0,0,0,0,0,0,0,'1',0,0,
    "0","",[
    0,8,3,0,'8','3','0'],[0,8,3,0,'8','3','0'],[
]),
poly('#ff8000','',2,[
	70,560,940,560],0,1,1,6609,0,0,0,0,0,0,0,'1',0,0,
    "0","",[
    0,8,3,0,'8','3','0'],[0,8,3,0,'8','3','0'],[
]),
poly('#ff8000','',2,[
	70,590,940,590],0,1,1,6608,0,0,0,0,0,0,0,'1',0,0,
    "0","",[
    0,8,3,0,'8','3','0'],[0,8,3,0,'8','3','0'],[
]),
poly('#ff8000','',2,[
	70,620,940,620],0,1,1,6607,0,0,0,0,0,0,0,'1',0,0,
    "0","",[
    0,8,3,0,'8','3','0'],[0,8,3,0,'8','3','0'],[
]),
poly('#ff8000','',2,[
	70,650,940,650],0,1,1,6606,0,0,0,0,0,0,0,'1',0,0,
    "0","",[
    0,8,3,0,'8','3','0'],[0,8,3,0,'8','3','0'],[
]),
poly('#ff8000','',2,[
	70,680,940,680],0,1,1,6605,0,0,0,0,0,0,0,'1',0,0,
    "0","",[
    0,8,3,0,'8','3','0'],[0,8,3,0,'8','3','0'],[
]),
poly('#ff8000','',2,[
	70,710,940,710],0,1,1,6604,0,0,0,0,0,0,0,'1',0,0,
    "0","",[
    0,8,3,0,'8','3','0'],[0,8,3,0,'8','3','0'],[
]),
poly('#ff8000','',2,[
	70,740,940,740],0,1,1,6603,0,0,0,0,0,0,0,'1',0,0,
    "0","",[
    0,8,3,0,'8','3','0'],[0,8,3,0,'8','3','0'],[
]),
poly('#ff8000','',2,[
	70,770,940,770],0,1,1,6602,0,0,0,0,0,0,0,'1',0,0,
    "0","",[
    0,8,3,0,'8','3','0'],[0,8,3,0,'8','3','0'],[
]),
poly('#ff8000','',2,[
	70,800,940,800],0,1,1,6601,0,0,0,0,0,0,0,'1',0,0,
    "0","",[
    0,8,3,0,'8','3','0'],[0,8,3,0,'8','3','0'],[
]),
poly('#ff8000','',2,[
	70,830,940,830],0,1,1,6600,0,0,0,0,0,0,0,'1',0,0,
    "0","",[
    0,8,3,0,'8','3','0'],[0,8,3,0,'8','3','0'],[
]),
poly('#ff8000','',2,[
	70,860,940,860],0,1,1,6599,0,0,0,0,0,0,0,'1',0,0,
    "0","",[
    0,8,3,0,'8','3','0'],[0,8,3,0,'8','3','0'],[
]),
poly('#ff8000','',2,[
	70,890,940,890],0,1,1,6598,0,0,0,0,0,0,0,'1',0,0,
    "0","",[
    0,8,3,0,'8','3','0'],[0,8,3,0,'8','3','0'],[
]),
poly('#ff8000','',2,[
	70,920,940,920],0,1,1,6597,0,0,0,0,0,0,0,'1',0,0,
    "0","",[
    0,8,3,0,'8','3','0'],[0,8,3,0,'8','3','0'],[
]),
poly('#ff8000','',2,[
	70,950,940,950],0,1,1,6596,0,0,0,0,0,0,0,'1',0,0,
    "0","",[
    0,8,3,0,'8','3','0'],[0,8,3,0,'8','3','0'],[
]),
poly('#ff8000','',2,[
	70,980,940,980],0,1,1,6595,0,0,0,0,0,0,0,'1',0,0,
    "0","",[
    0,8,3,0,'8','3','0'],[0,8,3,0,'8','3','0'],[
]),
poly('#ff8000','',2,[
	70,1010,940,1010],0,1,1,6594,0,0,0,0,0,0,0,'1',0,0,
    "0","",[
    0,8,3,0,'8','3','0'],[0,8,3,0,'8','3','0'],[
]),
poly('#ff8000','',2,[
	70,1040,940,1040],0,1,1,6593,0,0,0,0,0,0,0,'1',0,0,
    "0","",[
    0,8,3,0,'8','3','0'],[0,8,3,0,'8','3','0'],[
]),
poly('#ff8000','',2,[
	70,1070,940,1070],0,1,1,6592,0,0,0,0,0,0,0,'1',0,0,
    "0","",[
    0,8,3,0,'8','3','0'],[0,8,3,0,'8','3','0'],[
]),
poly('#ff8000','',2,[
	70,1100,940,1100],0,1,1,6591,0,0,0,0,0,0,0,'1',0,0,
    "0","",[
    0,8,3,0,'8','3','0'],[0,8,3,0,'8','3','0'],[
]),
poly('#ff8000','',2,[
	70,1130,940,1130],0,1,1,6590,0,0,0,0,0,0,0,'1',0,0,
    "0","",[
    0,8,3,0,'8','3','0'],[0,8,3,0,'8','3','0'],[
]),
poly('#ff8000','',2,[
	70,1160,940,1160],0,1,1,6589,0,0,0,0,0,0,0,'1',0,0,
    "0","",[
    0,8,3,0,'8','3','0'],[0,8,3,0,'8','3','0'],[
])
],
6588,0,0,[
]).
group([
poly('Black','',2,[
	160,80,190,50],0,3,1,3107,0,0,0,0,0,0,0,'3',0,0,
    "0","",[
    0,12,5,0,'12','5','0'],[0,12,5,0,'12','5','0'],[
]),
poly('Black','',2,[
	160,50,190,80],0,3,1,3106,0,0,0,0,0,0,0,'3',0,0,
    "0","",[
    0,12,5,0,'12','5','0'],[0,12,5,0,'12','5','0'],[
])
],
3105,0,0,[
]).
group([
poly('Black','',2,[
	160,110,190,80],0,3,1,3110,0,0,0,0,0,0,0,'3',0,0,
    "0","",[
    0,12,5,0,'12','5','0'],[0,12,5,0,'12','5','0'],[
]),
poly('Black','',2,[
	160,80,190,110],0,3,1,3109,0,0,0,0,0,0,0,'3',0,0,
    "0","",[
    0,12,5,0,'12','5','0'],[0,12,5,0,'12','5','0'],[
])
],
3108,0,0,[
]).
group([
poly('Black','',2,[
	160,140,190,110],0,3,1,3113,0,0,0,0,0,0,0,'3',0,0,
    "0","",[
    0,12,5,0,'12','5','0'],[0,12,5,0,'12','5','0'],[
]),
poly('Black','',2,[
	160,110,190,140],0,3,1,3112,0,0,0,0,0,0,0,'3',0,0,
    "0","",[
    0,12,5,0,'12','5','0'],[0,12,5,0,'12','5','0'],[
])
],
3111,0,0,[
]).
group([
poly('Black','',2,[
	820,80,850,50],0,3,1,3134,0,0,0,0,0,0,0,'3',0,0,
    "0","",[
    0,12,5,0,'12','5','0'],[0,12,5,0,'12','5','0'],[
]),
poly('Black','',2,[
	820,50,850,80],0,3,1,3133,0,0,0,0,0,0,0,'3',0,0,
    "0","",[
    0,12,5,0,'12','5','0'],[0,12,5,0,'12','5','0'],[
])
],
3132,0,0,[
]).
group([
poly('Black','',2,[
	820,110,850,80],0,3,1,3137,0,0,0,0,0,0,0,'3',0,0,
    "0","",[
    0,12,5,0,'12','5','0'],[0,12,5,0,'12','5','0'],[
]),
poly('Black','',2,[
	820,80,850,110],0,3,1,3136,0,0,0,0,0,0,0,'3',0,0,
    "0","",[
    0,12,5,0,'12','5','0'],[0,12,5,0,'12','5','0'],[
])
],
3135,0,0,[
]).
group([
poly('Black','',2,[
	820,140,850,110],0,3,1,3140,0,0,0,0,0,0,0,'3',0,0,
    "0","",[
    0,12,5,0,'12','5','0'],[0,12,5,0,'12','5','0'],[
]),
poly('Black','',2,[
	820,110,850,140],0,3,1,3139,0,0,0,0,0,0,0,'3',0,0,
    "0","",[
    0,12,5,0,'12','5','0'],[0,12,5,0,'12','5','0'],[
])
],
3138,0,0,[
]).
group([
poly('Black','',2,[
	160,1160,190,1130],0,3,1,3161,0,0,0,0,0,0,0,'3',0,0,
    "0","",[
    0,12,5,0,'12','5','0'],[0,12,5,0,'12','5','0'],[
]),
poly('Black','',2,[
	160,1130,190,1160],0,3,1,3160,0,0,0,0,0,0,0,'3',0,0,
    "0","",[
    0,12,5,0,'12','5','0'],[0,12,5,0,'12','5','0'],[
])
],
3159,0,0,[
]).
group([
poly('Black','',2,[
	160,1190,190,1160],0,3,1,3164,0,0,0,0,0,0,0,'3',0,0,
    "0","",[
    0,12,5,0,'12','5','0'],[0,12,5,0,'12','5','0'],[
]),
poly('Black','',2,[
	160,1160,190,1190],0,3,1,3163,0,0,0,0,0,0,0,'3',0,0,
    "0","",[
    0,12,5,0,'12','5','0'],[0,12,5,0,'12','5','0'],[
])
],
3162,0,0,[
]).
group([
poly('Black','',2,[
	160,1220,190,1190],0,3,1,3167,0,0,0,0,0,0,0,'3',0,0,
    "0","",[
    0,12,5,0,'12','5','0'],[0,12,5,0,'12','5','0'],[
]),
poly('Black','',2,[
	160,1190,190,1220],0,3,1,3166,0,0,0,0,0,0,0,'3',0,0,
    "0","",[
    0,12,5,0,'12','5','0'],[0,12,5,0,'12','5','0'],[
])
],
3165,0,0,[
]).
group([
poly('Black','',2,[
	820,1160,850,1130],0,3,1,3170,0,0,0,0,0,0,0,'3',0,0,
    "0","",[
    0,12,5,0,'12','5','0'],[0,12,5,0,'12','5','0'],[
]),
poly('Black','',2,[
	820,1130,850,1160],0,3,1,3169,0,0,0,0,0,0,0,'3',0,0,
    "0","",[
    0,12,5,0,'12','5','0'],[0,12,5,0,'12','5','0'],[
])
],
3168,0,0,[
]).
group([
poly('Black','',2,[
	820,1190,850,1160],0,3,1,3173,0,0,0,0,0,0,0,'3',0,0,
    "0","",[
    0,12,5,0,'12','5','0'],[0,12,5,0,'12','5','0'],[
]),
poly('Black','',2,[
	820,1160,850,1190],0,3,1,3172,0,0,0,0,0,0,0,'3',0,0,
    "0","",[
    0,12,5,0,'12','5','0'],[0,12,5,0,'12','5','0'],[
])
],
3171,0,0,[
]).
group([
poly('Black','',2,[
	820,1220,850,1190],0,3,1,3176,0,0,0,0,0,0,0,'3',0,0,
    "0","",[
    0,12,5,0,'12','5','0'],[0,12,5,0,'12','5','0'],[
]),
poly('Black','',2,[
	820,1190,850,1220],0,3,1,3175,0,0,0,0,0,0,0,'3',0,0,
    "0","",[
    0,12,5,0,'12','5','0'],[0,12,5,0,'12','5','0'],[
])
],
3174,0,0,[
]).
group([
box('Black','',100,920,130,1040,2,2,1,3323,0,0,0,0,0,'2',0,[
]),
poly('Black','',2,[
	100,950,130,950],0,1,1,3322,1,2,0,0,0,0,0,'1',0,0,
    "0","",[
    0,8,3,0,'8','3','0'],[0,8,3,0,'8','3','0'],[
]),
poly('Black','',2,[
	100,980,130,980],0,1,1,3321,1,2,0,0,0,0,0,'1',0,0,
    "0","",[
    0,8,3,0,'8','3','0'],[0,8,3,0,'8','3','0'],[
]),
poly('Black','',2,[
	100,1010,130,1010],0,1,1,3320,1,2,0,0,0,0,0,'1',0,0,
    "0","",[
    0,8,3,0,'8','3','0'],[0,8,3,0,'8','3','0'],[
]),
text('Black',110,929,1,0,1,8,14,3319,11,3,2,0,0,0,-65534,8,14,0,0,"",0,0,0,0,940,'',[
minilines(8,14,0,0,0,0,0,[
mini_line(8,11,3,0,0,0,[
str_block(0,8,11,3,0,-1,0,0,0,[
str_seg('Black','Courier',0,80640,8,11,3,0,-1,0,0,0,0,0,
	"1")])
])
])]),
text('Black',110,959,1,0,1,8,14,3318,11,3,2,0,0,0,-65534,8,14,0,0,"",0,0,0,0,970,'',[
minilines(8,14,0,0,0,0,0,[
mini_line(8,11,3,0,0,0,[
str_block(0,8,11,3,0,-1,0,0,0,[
str_seg('Black','Courier',0,80640,8,11,3,0,-1,0,0,0,0,0,
	"2")])
])
])]),
text('Black',110,989,1,0,1,8,14,3317,11,3,2,0,0,0,-65534,8,14,0,0,"",0,0,0,0,1000,'',[
minilines(8,14,0,0,0,0,0,[
mini_line(8,11,3,0,0,0,[
str_block(0,8,11,3,0,-1,0,0,0,[
str_seg('Black','Courier',0,80640,8,11,3,0,-1,0,0,0,0,0,
	"3")])
])
])]),
text('Black',110,1019,1,0,1,8,14,3316,11,3,2,0,0,0,-65534,8,14,0,0,"",0,0,0,0,1030,'',[
minilines(8,14,0,0,0,0,0,[
mini_line(8,11,3,0,0,0,[
str_block(0,8,11,3,0,-1,0,0,0,[
str_seg('Black','Courier',0,80640,8,11,3,0,-1,0,0,0,0,0,
	"4")])
])
])])
],
3315,0,0,[
]).
group([
box('Black','',130,470,190,620,2,2,1,3435,0,0,0,0,0,'2',0,[
]),
poly('Black','',2,[
	190,500,130,500],0,1,1,3434,1,2,0,0,0,0,0,'1',0,0,
    "0","",[
    0,8,3,0,'8','3','0'],[0,8,3,0,'8','3','0'],[
]),
poly('Black','',2,[
	190,530,130,530],0,1,1,3433,1,2,0,0,0,0,0,'1',0,0,
    "0","",[
    0,8,3,0,'8','3','0'],[0,8,3,0,'8','3','0'],[
]),
poly('Black','',2,[
	190,560,130,560],0,1,1,3432,1,2,0,0,0,0,0,'1',0,0,
    "0","",[
    0,8,3,0,'8','3','0'],[0,8,3,0,'8','3','0'],[
]),
poly('Black','',2,[
	190,590,130,590],0,1,1,3431,1,2,0,0,0,0,0,'1',0,0,
    "0","",[
    0,8,3,0,'8','3','0'],[0,8,3,0,'8','3','0'],[
]),
poly('Black','',2,[
	160,470,160,620],0,1,1,3430,1,2,0,0,0,0,0,'1',0,0,
    "0","",[
    0,8,3,0,'8','3','0'],[0,8,3,0,'8','3','0'],[
]),
text('Black',140,479,1,0,1,8,14,3429,11,3,2,0,0,0,-65534,8,14,0,0,"",0,0,0,0,490,'',[
minilines(8,14,0,0,0,0,0,[
mini_line(8,11,3,0,0,0,[
str_block(0,8,11,3,0,-1,0,0,0,[
str_seg('Black','Courier',0,80640,8,11,3,0,-1,0,0,0,0,0,
	"1")])
])
])]),
text('Black',170,479,1,0,1,8,14,3428,11,3,2,0,0,0,-65534,8,14,0,0,"",0,0,0,0,490,'',[
minilines(8,14,0,0,0,0,0,[
mini_line(8,11,3,0,0,0,[
str_block(0,8,11,3,0,-1,0,0,0,[
str_seg('Black','Courier',0,80640,8,11,3,0,-1,0,0,0,0,0,
	"2")])
])
])]),
text('Black',140,509,1,0,1,8,14,3427,11,3,2,0,0,0,-65534,8,14,0,0,"",0,0,0,0,520,'',[
minilines(8,14,0,0,0,0,0,[
mini_line(8,11,3,0,0,0,[
str_block(0,8,11,3,0,-1,0,0,0,[
str_seg('Black','Courier',0,80640,8,11,3,0,-1,0,0,0,0,0,
	"3")])
])
])]),
text('Black',170,509,1,0,1,8,14,3426,11,3,2,0,0,0,-65534,8,14,0,0,"",0,0,0,0,520,'',[
minilines(8,14,0,0,0,0,0,[
mini_line(8,11,3,0,0,0,[
str_block(0,8,11,3,0,-1,0,0,0,[
str_seg('Black','Courier',0,80640,8,11,3,0,-1,0,0,0,0,0,
	"4")])
])
])]),
text('Black',140,539,1,0,1,8,14,3425,11,3,2,0,0,0,-65534,8,14,0,0,"",0,0,0,0,550,'',[
minilines(8,14,0,0,0,0,0,[
mini_line(8,11,3,0,0,0,[
str_block(0,8,11,3,0,-1,0,0,0,[
str_seg('Black','Courier',0,80640,8,11,3,0,-1,0,0,0,0,0,
	"5")])
])
])]),
text('Black',170,539,1,0,1,8,14,3424,11,3,2,0,0,0,-65534,8,14,0,0,"",0,0,0,0,550,'',[
minilines(8,14,0,0,0,0,0,[
mini_line(8,11,3,0,0,0,[
str_block(0,8,11,3,0,-1,0,0,0,[
str_seg('Black','Courier',0,80640,8,11,3,0,-1,0,0,0,0,0,
	"6")])
])
])]),
text('Black',140,569,1,0,1,8,14,3423,11,3,2,0,0,0,-65534,8,14,0,0,"",0,0,0,0,580,'',[
minilines(8,14,0,0,0,0,0,[
mini_line(8,11,3,0,0,0,[
str_block(0,8,11,3,0,-1,0,0,0,[
str_seg('Black','Courier',0,80640,8,11,3,0,-1,0,0,0,0,0,
	"7")])
])
])]),
text('Black',170,569,1,0,1,8,14,3422,11,3,2,0,0,0,-65534,8,14,0,0,"",0,0,0,0,580,'',[
minilines(8,14,0,0,0,0,0,[
mini_line(8,11,3,0,0,0,[
str_block(0,8,11,3,0,-1,0,0,0,[
str_seg('Black','Courier',0,80640,8,11,3,0,-1,0,0,0,0,0,
	"8")])
])
])]),
text('Black',140,599,1,0,1,8,14,3421,11,3,2,0,0,0,-65534,8,14,0,0,"",0,0,0,0,610,'',[
minilines(8,14,0,0,0,0,0,[
mini_line(8,11,3,0,0,0,[
str_block(0,8,11,3,0,-1,0,0,0,[
str_seg('Black','Courier',0,80640,8,11,3,0,-1,0,0,0,0,0,
	"9")])
])
])]),
text('Black',165,599,1,0,1,16,14,3420,11,3,2,0,0,0,-65534,16,14,0,0,"",0,0,0,0,610,'',[
minilines(16,14,0,0,0,0,0,[
mini_line(16,11,3,0,0,0,[
str_block(0,16,11,3,0,-1,0,0,0,[
str_seg('Black','Courier',0,80640,16,11,3,0,-1,0,0,0,0,0,
	"10")])
])
])]),
poly('Black','',7,[
	165,460,155,485,165,515,155,545,165,575,155,605,165,630],0,3,1,3419,0,0,0,0,0,0,0,'3',0,0,
    "00","",[
    0,12,5,0,'12','5','0'],[0,12,5,0,'12','5','0'],[
])
],
3418,0,0,[
]).
group([
box('Black','',100,320,130,380,2,2,1,3445,0,0,0,0,0,'2',0,[
]),
poly('Black','',2,[
	100,350,130,350],0,1,1,3444,1,2,0,0,0,0,0,'1',0,0,
    "0","",[
    0,8,3,0,'8','3','0'],[0,8,3,0,'8','3','0'],[
]),
text('Black',110,329,1,0,1,8,14,3443,11,3,2,0,0,0,-65534,8,14,0,0,"",0,0,0,0,340,'',[
minilines(8,14,0,0,0,0,0,[
mini_line(8,11,3,0,0,0,[
str_block(0,8,11,3,0,-1,0,0,0,[
str_seg('Black','Courier',0,80640,8,11,3,0,-1,0,0,0,0,0,
	"2")])
])
])]),
text('Black',110,359,1,0,1,8,14,3442,11,3,2,0,0,0,-65534,8,14,0,0,"",0,0,0,0,370,'',[
minilines(8,14,0,0,0,0,0,[
mini_line(8,11,3,0,0,0,[
str_block(0,8,11,3,0,-1,0,0,0,[
str_seg('Black','Courier',0,80640,8,11,3,0,-1,0,0,0,0,0,
	"1")])
])
])])
],
3441,0,0,[
]).
group([
box('Black','',160,320,190,380,2,2,1,3450,0,0,0,0,0,'2',0,[
]),
poly('Black','',2,[
	160,350,190,350],0,1,1,3449,1,2,0,0,0,0,0,'1',0,0,
    "0","",[
    0,8,3,0,'8','3','0'],[0,8,3,0,'8','3','0'],[
]),
text('Black',170,329,1,0,1,8,14,3448,11,3,2,0,0,0,-65534,8,14,0,0,"",0,0,0,0,340,'',[
minilines(8,14,0,0,0,0,0,[
mini_line(8,11,3,0,0,0,[
str_block(0,8,11,3,0,-1,0,0,0,[
str_seg('Black','Courier',0,80640,8,11,3,0,-1,0,0,0,0,0,
	"2")])
])
])]),
text('Black',170,359,1,0,1,8,14,3447,11,3,2,0,0,0,-65534,8,14,0,0,"",0,0,0,0,370,'',[
minilines(8,14,0,0,0,0,0,[
mini_line(8,11,3,0,0,0,[
str_block(0,8,11,3,0,-1,0,0,0,[
str_seg('Black','Courier',0,80640,8,11,3,0,-1,0,0,0,0,0,
	"1")])
])
])])
],
3446,0,0,[
]).
group([
box('Black','',100,710,130,860,2,2,1,3538,0,0,0,0,0,'2',0,[
]),
poly('Black','',2,[
	100,740,130,740],0,1,1,3537,1,2,0,0,0,0,0,'1',0,0,
    "0","",[
    0,8,3,0,'8','3','0'],[0,8,3,0,'8','3','0'],[
]),
poly('Black','',2,[
	100,770,130,770],0,1,1,3536,1,2,0,0,0,0,0,'1',0,0,
    "0","",[
    0,8,3,0,'8','3','0'],[0,8,3,0,'8','3','0'],[
]),
poly('Black','',2,[
	100,800,130,800],0,1,1,3535,1,2,0,0,0,0,0,'1',0,0,
    "0","",[
    0,8,3,0,'8','3','0'],[0,8,3,0,'8','3','0'],[
]),
text('Black',110,719,1,0,1,8,14,3534,11,3,2,0,0,0,-65534,8,14,0,0,"",0,0,0,0,730,'',[
minilines(8,14,0,0,0,0,0,[
mini_line(8,11,3,0,0,0,[
str_block(0,8,11,3,0,-1,0,0,0,[
str_seg('Black','Courier',0,80640,8,11,3,0,-1,0,0,0,0,0,
	"5")])
])
])]),
text('Black',110,749,1,0,1,8,14,3533,11,3,2,0,0,0,-65534,8,14,0,0,"",0,0,0,0,760,'',[
minilines(8,14,0,0,0,0,0,[
mini_line(8,11,3,0,0,0,[
str_block(0,8,11,3,0,-1,0,0,0,[
str_seg('Black','Courier',0,80640,8,11,3,0,-1,0,0,0,0,0,
	"4")])
])
])]),
text('Black',110,779,1,0,1,8,14,3532,11,3,2,0,0,0,-65534,8,14,0,0,"",0,0,0,0,790,'',[
minilines(8,14,0,0,0,0,0,[
mini_line(8,11,3,0,0,0,[
str_block(0,8,11,3,0,-1,0,0,0,[
str_seg('Black','Courier',0,80640,8,11,3,0,-1,0,0,0,0,0,
	"3")])
])
])]),
text('Black',110,809,1,0,1,8,14,3531,11,3,2,0,0,0,-65534,8,14,0,0,"",0,0,0,0,820,'',[
minilines(8,14,0,0,0,0,0,[
mini_line(8,11,3,0,0,0,[
str_block(0,8,11,3,0,-1,0,0,0,[
str_seg('Black','Courier',0,80640,8,11,3,0,-1,0,0,0,0,0,
	"2")])
])
])]),
poly('Black','',2,[
	100,830,130,830],0,1,1,3530,1,2,0,0,0,0,0,'1',0,0,
    "0","",[
    0,8,3,0,'8','3','0'],[0,8,3,0,'8','3','0'],[
]),
text('Black',110,839,1,0,1,8,14,3529,11,3,2,0,0,0,-65534,8,14,0,0,"",0,0,0,0,850,'',[
minilines(8,14,0,0,0,0,0,[
mini_line(8,11,3,0,0,0,[
str_block(0,8,11,3,0,-1,0,0,0,[
str_seg('Black','Courier',0,80640,8,11,3,0,-1,0,0,0,0,0,
	"1")])
])
])])
],
3528,0,0,[
]).
group([
box('Black','',310,110,370,200,2,2,1,3562,0,0,0,0,0,'2',0,[
]),
poly('Black','',2,[
	310,140,370,140],0,1,1,3561,1,2,0,0,0,0,0,'1',0,0,
    "0","",[
    0,8,3,0,'8','3','0'],[0,8,3,0,'8','3','0'],[
]),
poly('Black','',2,[
	310,170,370,170],0,1,1,3560,1,2,0,0,0,0,0,'1',0,0,
    "0","",[
    0,8,3,0,'8','3','0'],[0,8,3,0,'8','3','0'],[
]),
poly('Black','',2,[
	340,110,340,200],0,1,1,3559,1,2,0,0,0,0,0,'1',0,0,
    "0","",[
    0,8,3,0,'8','3','0'],[0,8,3,0,'8','3','0'],[
]),
text('Black',320,119,1,0,1,8,14,3558,11,3,2,0,0,0,-65534,8,14,0,0,"",0,0,0,0,130,'',[
minilines(8,14,0,0,0,0,0,[
mini_line(8,11,3,0,0,0,[
str_block(0,8,11,3,0,-1,0,0,0,[
str_seg('Black','Courier',0,80640,8,11,3,0,-1,0,0,0,0,0,
	"1")])
])
])]),
text('Black',350,119,1,0,1,8,14,3557,11,3,2,0,0,0,-65534,8,14,0,0,"",0,0,0,0,130,'',[
minilines(8,14,0,0,0,0,0,[
mini_line(8,11,3,0,0,0,[
str_block(0,8,11,3,0,-1,0,0,0,[
str_seg('Black','Courier',0,80640,8,11,3,0,-1,0,0,0,0,0,
	"2")])
])
])]),
text('Black',320,149,1,0,1,8,14,3556,11,3,2,0,0,0,-65534,8,14,0,0,"",0,0,0,0,160,'',[
minilines(8,14,0,0,0,0,0,[
mini_line(8,11,3,0,0,0,[
str_block(0,8,11,3,0,-1,0,0,0,[
str_seg('Black','Courier',0,80640,8,11,3,0,-1,0,0,0,0,0,
	"3")])
])
])]),
text('Black',350,149,1,0,1,8,14,3555,11,3,2,0,0,0,-65534,8,14,0,0,"",0,0,0,0,160,'',[
minilines(8,14,0,0,0,0,0,[
mini_line(8,11,3,0,0,0,[
str_block(0,8,11,3,0,-1,0,0,0,[
str_seg('Black','Courier',0,80640,8,11,3,0,-1,0,0,0,0,0,
	"4")])
])
])]),
text('Black',320,179,1,0,1,8,14,3554,11,3,2,0,0,0,-65534,8,14,0,0,"",0,0,0,0,190,'',[
minilines(8,14,0,0,0,0,0,[
mini_line(8,11,3,0,0,0,[
str_block(0,8,11,3,0,-1,0,0,0,[
str_seg('Black','Courier',0,80640,8,11,3,0,-1,0,0,0,0,0,
	"5")])
])
])]),
text('Black',350,179,1,0,1,8,14,3553,11,3,2,0,0,0,-65534,8,14,0,0,"",0,0,0,0,190,'',[
minilines(8,14,0,0,0,0,0,[
mini_line(8,11,3,0,0,0,[
str_block(0,8,11,3,0,-1,0,0,0,[
str_seg('Black','Courier',0,80640,8,11,3,0,-1,0,0,0,0,0,
	"6")])
])
])]),
poly('Black','',5,[
	345,100,335,125,345,155,335,185,345,210],0,3,1,3552,0,0,0,0,0,0,0,'3',0,0,
    "00","",[
    0,12,5,0,'12','5','0'],[0,12,5,0,'12','5','0'],[
])
],
3551,0,0,[
]).
group([
box('Black','',730,1040,790,1130,2,2,1,3985,0,0,0,0,0,'2',0,[
]),
poly('Black','',2,[
	730,1070,790,1070],0,1,1,3984,1,2,0,0,0,0,0,'1',0,0,
    "0","",[
    0,8,3,0,'8','3','0'],[0,8,3,0,'8','3','0'],[
]),
poly('Black','',2,[
	730,1100,790,1100],0,1,1,3983,1,2,0,0,0,0,0,'1',0,0,
    "0","",[
    0,8,3,0,'8','3','0'],[0,8,3,0,'8','3','0'],[
]),
poly('Black','',2,[
	760,1040,760,1130],0,1,1,3982,1,2,0,0,0,0,0,'1',0,0,
    "0","",[
    0,8,3,0,'8','3','0'],[0,8,3,0,'8','3','0'],[
]),
text('Black',740,1049,1,0,1,8,14,3981,11,3,2,0,0,0,-65534,8,14,0,0,"",0,0,0,0,1060,'',[
minilines(8,14,0,0,0,0,0,[
mini_line(8,11,3,0,0,0,[
str_block(0,8,11,3,0,-1,0,0,0,[
str_seg('Black','Courier',0,80640,8,11,3,0,-1,0,0,0,0,0,
	"1")])
])
])]),
text('Black',770,1049,1,0,1,8,14,3980,11,3,2,0,0,0,-65534,8,14,0,0,"",0,0,0,0,1060,'',[
minilines(8,14,0,0,0,0,0,[
mini_line(8,11,3,0,0,0,[
str_block(0,8,11,3,0,-1,0,0,0,[
str_seg('Black','Courier',0,80640,8,11,3,0,-1,0,0,0,0,0,
	"2")])
])
])]),
text('Black',740,1079,1,0,1,8,14,3979,11,3,2,0,0,0,-65534,8,14,0,0,"",0,0,0,0,1090,'',[
minilines(8,14,0,0,0,0,0,[
mini_line(8,11,3,0,0,0,[
str_block(0,8,11,3,0,-1,0,0,0,[
str_seg('Black','Courier',0,80640,8,11,3,0,-1,0,0,0,0,0,
	"3")])
])
])]),
text('Black',770,1079,1,0,1,8,14,3978,11,3,2,0,0,0,-65534,8,14,0,0,"",0,0,0,0,1090,'',[
minilines(8,14,0,0,0,0,0,[
mini_line(8,11,3,0,0,0,[
str_block(0,8,11,3,0,-1,0,0,0,[
str_seg('Black','Courier',0,80640,8,11,3,0,-1,0,0,0,0,0,
	"4")])
])
])]),
text('Black',740,1109,1,0,1,8,14,3977,11,3,2,0,0,0,-65534,8,14,0,0,"",0,0,0,0,1120,'',[
minilines(8,14,0,0,0,0,0,[
mini_line(8,11,3,0,0,0,[
str_block(0,8,11,3,0,-1,0,0,0,[
str_seg('Black','Courier',0,80640,8,11,3,0,-1,0,0,0,0,0,
	"5")])
])
])]),
text('Black',770,1109,1,0,1,8,14,3976,11,3,2,0,0,0,-65534,8,14,0,0,"",0,0,0,0,1120,'',[
minilines(8,14,0,0,0,0,0,[
mini_line(8,11,3,0,0,0,[
str_block(0,8,11,3,0,-1,0,0,0,[
str_seg('Black','Courier',0,80640,8,11,3,0,-1,0,0,0,0,0,
	"6")])
])
])]),
poly('Black','',5,[
	765,1030,755,1055,765,1085,755,1115,765,1140],0,3,1,3975,0,0,0,0,0,0,0,'3',0,0,
    "00","",[
    0,12,5,0,'12','5','0'],[0,12,5,0,'12','5','0'],[
])
],
3974,0,0,[
]).
poly('#00ae00','',2,[
	145,1025,145,845],0,2,1,3986,0,0,0,0,0,0,0,'2',0,0,
    "0","",[
    0,10,4,0,'10','4','0'],[0,10,4,0,'10','4','0'],[
]).
poly('#00ae00','',2,[
	175,845,175,695],0,2,1,3987,0,0,0,0,0,0,0,'2',0,0,
    "0","",[
    0,10,4,0,'10','4','0'],[0,10,4,0,'10','4','0'],[
]).
poly('#00ae00','',2,[
	205,695,205,575],0,2,1,3988,0,0,0,0,0,0,0,'2',0,0,
    "0","",[
    0,10,4,0,'10','4','0'],[0,10,4,0,'10','4','0'],[
]).
poly('#00ae00','',2,[
	235,575,235,365],0,2,1,3989,0,0,0,0,0,0,0,'2',0,0,
    "0","",[
    0,10,4,0,'10','4','0'],[0,10,4,0,'10','4','0'],[
]).
poly('#00ae00','',2,[
	205,365,205,95],0,2,1,3991,0,0,0,0,0,0,0,'2',0,0,
    "0","",[
    0,10,4,0,'10','4','0'],[0,10,4,0,'10','4','0'],[
]).
poly('#00ae00','',2,[
	445,365,445,215],0,2,1,3992,0,0,0,0,0,0,0,'2',0,0,
    "0","",[
    0,10,4,0,'10','4','0'],[0,10,4,0,'10','4','0'],[
]).
poly('#ff0000','',2,[
	625,95,625,425],0,2,1,3993,0,0,0,0,0,0,0,'2',0,0,
    "0","",[
    0,10,4,0,'10','4','0'],[0,10,4,0,'10','4','0'],[
]).
poly('#ff0000','',2,[
	475,185,475,425],0,2,1,3994,0,0,0,0,0,0,0,'2',0,0,
    "0","",[
    0,10,4,0,'10','4','0'],[0,10,4,0,'10','4','0'],[
]).
poly('#ff0000','',2,[
	775,425,775,515],0,2,1,3995,0,0,0,0,0,0,0,'2',0,0,
    "0","",[
    0,10,4,0,'10','4','0'],[0,10,4,0,'10','4','0'],[
]).
poly('#ff0000','',2,[
	835,515,835,875],0,2,1,3996,0,0,0,0,0,0,0,'2',0,0,
    "0","",[
    0,10,4,0,'10','4','0'],[0,10,4,0,'10','4','0'],[
]).
poly('#ff0000','',2,[
	475,875,475,935],0,2,1,3997,0,0,0,0,0,0,0,'2',0,0,
    "0","",[
    0,10,4,0,'10','4','0'],[0,10,4,0,'10','4','0'],[
]).
group([
poly('Black','',2,[
	175,965,175,975],0,2,1,4011,1,2,0,0,0,0,0,'2',0,0,
    "0","",[
    0,10,4,0,'10','4','0'],[0,10,4,0,'10','4','0'],[
]),
poly('Black','',2,[
	165,985,185,985],0,2,1,4010,1,2,0,0,0,0,0,'2',0,0,
    "0","",[
    0,10,4,0,'10','4','0'],[0,10,4,0,'10','4','0'],[
]),
poly('Black','',2,[
	175,985,175,995],0,2,1,4009,1,2,0,0,0,0,0,'2',0,0,
    "0","",[
    0,10,4,0,'10','4','0'],[0,10,4,0,'10','4','0'],[
]),
box('Black','',165,975,185,980,2,2,1,4008,0,0,0,0,0,'2',0,[
]),
poly('Black','',2,[
	180,965,190,965],0,1,1,4007,1,2,0,0,0,0,0,'1',0,0,
    "0","",[
    0,8,3,0,'8','3','0'],[0,8,3,0,'8','3','0'],[
]),
poly('Black','',2,[
	185,960,185,970],0,1,1,4006,1,2,0,0,0,0,0,'1',0,0,
    "0","",[
    0,8,3,0,'8','3','0'],[0,8,3,0,'8','3','0'],[
])
],
4005,0,0,[
]).
poly('Black','',2,[
	175,935,175,965],0,2,1,4012,0,0,0,0,0,0,0,'2',0,0,
    "0","",[
    0,10,4,0,'10','4','0'],[0,10,4,0,'10','4','0'],[
]).
poly('Black','',2,[
	175,1025,175,995],0,2,1,4013,0,0,0,0,0,0,0,'2',0,0,
    "0","",[
    0,10,4,0,'10','4','0'],[0,10,4,0,'10','4','0'],[
]).
group([
poly('Black','',2,[
	220,1040,250,1010],0,3,1,4019,0,0,0,0,0,0,0,'3',0,0,
    "0","",[
    0,12,5,0,'12','5','0'],[0,12,5,0,'12','5','0'],[
]),
poly('Black','',2,[
	220,1010,250,1040],0,3,1,4018,0,0,0,0,0,0,0,'3',0,0,
    "0","",[
    0,12,5,0,'12','5','0'],[0,12,5,0,'12','5','0'],[
])
],
4017,0,0,[
]).
group([
box('Black','',195,850,215,900,2,2,1,4027,0,0,0,0,0,'2',0,[
]),
poly('Black','',2,[
	205,850,205,830],0,2,1,4026,1,2,0,0,0,0,0,'2',0,0,
    "0","",[
    0,10,4,0,'10','4','0'],[0,10,4,0,'10','4','0'],[
]),
poly('Black','',2,[
	205,900,205,920],0,2,1,4025,1,2,0,0,0,0,0,'2',0,0,
    "0","",[
    0,10,4,0,'10','4','0'],[0,10,4,0,'10','4','0'],[
])
],
4024,0,0,[
]).
poly('Black','',2,[
	205,815,205,830],0,2,1,4028,0,0,0,0,0,0,0,'2',0,0,
    "0","",[
    0,10,4,0,'10','4','0'],[0,10,4,0,'10','4','0'],[
]).
poly('Black','',2,[
	205,935,205,920],0,2,1,4029,0,0,0,0,0,0,0,'2',0,0,
    "0","",[
    0,10,4,0,'10','4','0'],[0,10,4,0,'10','4','0'],[
]).
group([
box('Black','',225,850,245,900,2,2,1,4037,0,0,0,0,0,'2',0,[
]),
poly('Black','',2,[
	235,850,235,830],0,2,1,4036,1,2,0,0,0,0,0,'2',0,0,
    "0","",[
    0,10,4,0,'10','4','0'],[0,10,4,0,'10','4','0'],[
]),
poly('Black','',2,[
	235,900,235,920],0,2,1,4035,1,2,0,0,0,0,0,'2',0,0,
    "0","",[
    0,10,4,0,'10','4','0'],[0,10,4,0,'10','4','0'],[
])
],
4034,0,0,[
]).
group([
box('Black','',255,850,275,900,2,2,1,4041,0,0,0,0,0,'2',0,[
]),
poly('Black','',2,[
	265,850,265,830],0,2,1,4040,1,2,0,0,0,0,0,'2',0,0,
    "0","",[
    0,10,4,0,'10','4','0'],[0,10,4,0,'10','4','0'],[
]),
poly('Black','',2,[
	265,900,265,920],0,2,1,4039,1,2,0,0,0,0,0,'2',0,0,
    "0","",[
    0,10,4,0,'10','4','0'],[0,10,4,0,'10','4','0'],[
])
],
4038,0,0,[
]).
group([
box('Black','',285,850,305,900,2,2,1,4045,0,0,0,0,0,'2',0,[
]),
poly('Black','',2,[
	295,850,295,830],0,2,1,4044,1,2,0,0,0,0,0,'2',0,0,
    "0","",[
    0,10,4,0,'10','4','0'],[0,10,4,0,'10','4','0'],[
]),
poly('Black','',2,[
	295,900,295,920],0,2,1,4043,1,2,0,0,0,0,0,'2',0,0,
    "0","",[
    0,10,4,0,'10','4','0'],[0,10,4,0,'10','4','0'],[
])
],
4042,0,0,[
]).
poly('Black','',2,[
	235,935,235,920],0,2,1,4046,0,0,0,0,0,0,0,'2',0,0,
    "0","",[
    0,10,4,0,'10','4','0'],[0,10,4,0,'10','4','0'],[
]).
poly('Black','',2,[
	265,935,265,920],0,2,1,4047,0,0,0,0,0,0,0,'2',0,0,
    "0","",[
    0,10,4,0,'10','4','0'],[0,10,4,0,'10','4','0'],[
]).
poly('Black','',2,[
	295,935,295,920],0,2,1,4048,0,0,0,0,0,0,0,'2',0,0,
    "0","",[
    0,10,4,0,'10','4','0'],[0,10,4,0,'10','4','0'],[
]).
poly('Black','',2,[
	235,785,235,830],0,2,1,4049,0,0,0,0,0,0,0,'2',0,0,
    "0","",[
    0,10,4,0,'10','4','0'],[0,10,4,0,'10','4','0'],[
]).
poly('Black','',2,[
	265,755,265,830],0,2,1,4050,0,0,0,0,0,0,0,'2',0,0,
    "0","",[
    0,10,4,0,'10','4','0'],[0,10,4,0,'10','4','0'],[
]).
poly('Black','',2,[
	295,725,295,830],0,2,1,4051,0,0,0,0,0,0,0,'2',0,0,
    "0","",[
    0,10,4,0,'10','4','0'],[0,10,4,0,'10','4','0'],[
]).
group([
box('Black','',255,1015,275,1065,2,2,1,4059,0,0,0,0,0,'2',0,[
]),
poly('Black','',2,[
	265,1015,265,995],0,2,1,4058,1,2,0,0,0,0,0,'2',0,0,
    "0","",[
    0,10,4,0,'10','4','0'],[0,10,4,0,'10','4','0'],[
]),
poly('Black','',2,[
	265,1065,265,1085],0,2,1,4057,1,2,0,0,0,0,0,'2',0,0,
    "0","",[
    0,10,4,0,'10','4','0'],[0,10,4,0,'10','4','0'],[
])
],
4056,0,0,[
]).
poly('Black','',2,[
	295,1085,295,1055],0,2,1,4062,0,0,0,0,0,0,0,'2',0,0,
    "0","",[
    0,10,4,0,'10','4','0'],[0,10,4,0,'10','4','0'],[
]).
group([
poly('Black','',2,[
	340,1100,370,1070],0,3,1,4068,0,0,0,0,0,0,0,'3',0,0,
    "0","",[
    0,12,5,0,'12','5','0'],[0,12,5,0,'12','5','0'],[
]),
poly('Black','',2,[
	340,1070,370,1100],0,3,1,4067,0,0,0,0,0,0,0,'3',0,0,
    "0","",[
    0,12,5,0,'12','5','0'],[0,12,5,0,'12','5','0'],[
])
],
4066,0,0,[
]).
group([
group([
polygon('Black','',4,[
	383,934,373,954,393,954,383,934],2,2,1,0,4086,0,0,0,1,0,'2',0,
    "0",[
	373,934,373,934,393,954,-1000,3.49246e-13,-3.49246e-13,-1000,-38,-4],[
]),
box('Black','',317,912,333,922,0,2,0,4083,0,0,0,1,0,'2',0,[
    375,942,375,942,391,952,-1000,3.49246e-13,-3.49246e-13,-1000,-42,-20],[
attr("", "auto_center_attr", 0, 1, 0,
text('Black',383,941,1,1,1,144,16,4085,11,3,0,0,0,0,-65534,128,14,0,0,"",0,1,0,0,954,'',[
	383,941,311,941,455,957,-1000,3.49246e-13,-3.49246e-13,-1000,-58,-18,310,940,456,958],[
minilines(128,14,0,0,1,0,0,[
mini_line(128,11,3,0,0,0,[
str_block(0,128,11,3,0,0,0,0,0,[
str_seg('Black','Courier',0,80640,128,11,3,0,0,0,0,0,0,0,
	"auto_center_attr")])
])
])])),
attr("label=", "", 1, 0, 0,
text('Black',383,938,1,1,1,0,16,4084,11,3,0,0,0,0,-65534,0,14,0,0,"",0,1,0,0,951,'',[
	383,938,383,938,383,954,-1000,3.49246e-13,-3.49246e-13,-1000,-58,-12,382,937,384,955],[
minilines(0,14,0,0,1,0,0,[
mini_line(0,11,3,0,0,0,[
str_block(0,0,11,3,0,0,0,0,0,[
str_seg('Black','Courier',0,80640,0,11,3,0,0,0,0,0,0,0,
	"")])
])
])]))
])
],
4082,0,0,[
]),
poly('Black','',2,[
	373,934,393,934],0,2,1,4081,1,2,0,0,0,1,0,'2',0,0,
    "0","",[
    0,10,4,0,'10','4','0'],[0,10,4,0,'10','4','0'],[
	373,934,373,934,393,934,-1000,3.49246e-13,-3.49246e-13,-1000,-38,-4],[
]),
poly('Black','',2,[
	383,974,383,914],0,2,1,4080,1,2,0,0,0,1,0,'2',0,0,
    "0","",[
    0,10,4,0,'10','4','0'],[0,10,4,0,'10','4','0'],[
	383,914,383,914,383,974,-1000,3.49246e-13,-3.49246e-13,-1000,-58,36],[
]),
poly('Black','',2,[
	393,934,393,939],0,2,1,4079,1,2,0,0,0,1,0,'2',0,0,
    "0","",[
    0,10,4,0,'10','4','0'],[0,10,4,0,'10','4','0'],[
	393,934,393,934,393,939,-1000,3.49246e-13,-3.49246e-13,-1000,-78,-4],[
])
],
4078,0,0,[
]).
group([
group([
polygon('Black','',4,[
	413,934,403,954,423,954,413,934],2,2,1,0,4095,0,0,0,1,0,'2',0,
    "0",[
	403,934,403,934,423,954,-1000,3.49246e-13,-3.49246e-13,-1000,-38,-4],[
]),
box('Black','',347,912,363,922,0,2,0,4092,0,0,0,1,0,'2',0,[
    405,942,405,942,421,952,-1000,3.49246e-13,-3.49246e-13,-1000,-42,-20],[
attr("", "auto_center_attr", 0, 1, 0,
text('Black',413,941,1,1,1,144,16,4094,11,3,0,0,0,0,-65534,128,14,0,0,"",0,1,0,0,954,'',[
	413,941,341,941,485,957,-1000,3.49246e-13,-3.49246e-13,-1000,-58,-18,340,940,486,958],[
minilines(128,14,0,0,1,0,0,[
mini_line(128,11,3,0,0,0,[
str_block(0,128,11,3,0,0,0,0,0,[
str_seg('Black','Courier',0,80640,128,11,3,0,0,0,0,0,0,0,
	"auto_center_attr")])
])
])])),
attr("label=", "", 1, 0, 0,
text('Black',413,938,1,1,1,0,16,4093,11,3,0,0,0,0,-65534,0,14,0,0,"",0,1,0,0,951,'',[
	413,938,413,938,413,954,-1000,3.49246e-13,-3.49246e-13,-1000,-58,-12,412,937,414,955],[
minilines(0,14,0,0,1,0,0,[
mini_line(0,11,3,0,0,0,[
str_block(0,0,11,3,0,0,0,0,0,[
str_seg('Black','Courier',0,80640,0,11,3,0,0,0,0,0,0,0,
	"")])
])
])]))
])
],
4091,0,0,[
]),
poly('Black','',2,[
	403,934,423,934],0,2,1,4090,1,2,0,0,0,1,0,'2',0,0,
    "0","",[
    0,10,4,0,'10','4','0'],[0,10,4,0,'10','4','0'],[
	403,934,403,934,423,934,-1000,3.49246e-13,-3.49246e-13,-1000,-38,-4],[
]),
poly('Black','',2,[
	413,974,413,914],0,2,1,4089,1,2,0,0,0,1,0,'2',0,0,
    "0","",[
    0,10,4,0,'10','4','0'],[0,10,4,0,'10','4','0'],[
	413,914,413,914,413,974,-1000,3.49246e-13,-3.49246e-13,-1000,-58,36],[
]),
poly('Black','',2,[
	423,934,423,939],0,2,1,4088,1,2,0,0,0,1,0,'2',0,0,
    "0","",[
    0,10,4,0,'10','4','0'],[0,10,4,0,'10','4','0'],[
	423,934,423,934,423,939,-1000,3.49246e-13,-3.49246e-13,-1000,-78,-4],[
])
],
4087,0,0,[
]).
poly('Black','',2,[
	325,845,325,890],0,2,1,4096,0,0,0,0,0,0,0,'2',0,0,
    "0","",[
    0,10,4,0,'10','4','0'],[0,10,4,0,'10','4','0'],[
]).
poly('Black','',2,[
	325,950,325,995],0,2,1,4097,0,0,0,0,0,0,0,'2',0,0,
    "0","",[
    0,10,4,0,'10','4','0'],[0,10,4,0,'10','4','0'],[
]).
poly('Black','',2,[
	355,845,355,890],0,2,1,4098,0,0,0,0,0,0,0,'2',0,0,
    "0","",[
    0,10,4,0,'10','4','0'],[0,10,4,0,'10','4','0'],[
]).
poly('Black','',2,[
	355,965,355,950],0,2,1,4099,0,0,0,0,0,0,0,'2',0,0,
    "0","",[
    0,10,4,0,'10','4','0'],[0,10,4,0,'10','4','0'],[
]).
group([
box('Black','',375,895,395,945,2,2,1,4107,0,0,0,0,0,'2',0,[
]),
poly('Black','',2,[
	385,895,385,875],0,2,1,4106,1,2,0,0,0,0,0,'2',0,0,
    "0","",[
    0,10,4,0,'10','4','0'],[0,10,4,0,'10','4','0'],[
]),
poly('Black','',2,[
	385,945,385,965],0,2,1,4105,1,2,0,0,0,0,0,'2',0,0,
    "0","",[
    0,10,4,0,'10','4','0'],[0,10,4,0,'10','4','0'],[
])
],
4104,0,0,[
]).
group([
box('Black','',465,1045,485,1095,2,2,1,4111,0,0,0,0,0,'2',0,[
]),
poly('Black','',2,[
	475,1045,475,1025],0,2,1,4110,1,2,0,0,0,0,0,'2',0,0,
    "0","",[
    0,10,4,0,'10','4','0'],[0,10,4,0,'10','4','0'],[
]),
poly('Black','',2,[
	475,1095,475,1115],0,2,1,4109,1,2,0,0,0,0,0,'2',0,0,
    "0","",[
    0,10,4,0,'10','4','0'],[0,10,4,0,'10','4','0'],[
])
],
4108,0,0,[
]).
poly('Black','',2,[
	235,965,235,1145],0,2,1,4112,0,0,0,0,0,0,0,'2',0,0,
    "0","",[
    0,10,4,0,'10','4','0'],[0,10,4,0,'10','4','0'],[
]).
group([
poly('Black','',2,[
	400,1010,430,980],0,3,1,4118,0,0,0,0,0,0,0,'3',0,0,
    "0","",[
    0,12,5,0,'12','5','0'],[0,12,5,0,'12','5','0'],[
]),
poly('Black','',2,[
	400,980,430,1010],0,3,1,4117,0,0,0,0,0,0,0,'3',0,0,
    "0","",[
    0,12,5,0,'12','5','0'],[0,12,5,0,'12','5','0'],[
])
],
4116,0,0,[
]).
poly('Black','',2,[
	355,1025,355,1205],0,2,1,4119,0,0,0,0,0,0,0,'2',0,0,
    "0","",[
    0,10,4,0,'10','4','0'],[0,10,4,0,'10','4','0'],[
]).
poly('Black','',2,[
	385,1175,385,1115],0,2,1,4120,0,0,0,0,0,0,0,'2',0,0,
    "0","",[
    0,10,4,0,'10','4','0'],[0,10,4,0,'10','4','0'],[
]).
group([
poly('Black','',2,[
	400,980,430,950],0,3,1,4124,0,0,0,0,0,0,0,'3',0,0,
    "0","",[
    0,12,5,0,'12','5','0'],[0,12,5,0,'12','5','0'],[
]),
poly('Black','',2,[
	400,950,430,980],0,3,1,4123,0,0,0,0,0,0,0,'3',0,0,
    "0","",[
    0,12,5,0,'12','5','0'],[0,12,5,0,'12','5','0'],[
])
],
4122,0,0,[
]).
poly('Black','',2,[
	145,815,145,635],0,2,1,4125,0,0,0,0,0,0,0,'2',0,0,
    "0","",[
    0,10,4,0,'10','4','0'],[0,10,4,0,'10','4','0'],[
]).
poly('Black','',2,[
	115,665,115,515],0,2,1,4126,0,0,0,0,0,0,0,'2',0,0,
    "0","",[
    0,10,4,0,'10','4','0'],[0,10,4,0,'10','4','0'],[
]).
poly('Black','',2,[
	115,485,115,455],0,2,1,4127,0,0,0,0,0,0,0,'2',0,0,
    "0","",[
    0,10,4,0,'10','4','0'],[0,10,4,0,'10','4','0'],[
]).
group([
group([
polygon('Black','',4,[
	85,490,75,510,95,510,85,490],2,2,1,0,4143,0,0,0,0,0,'2',0,
    "0",[
]),
box('Black','',77,498,93,508,0,2,0,4140,0,0,0,0,0,'2',0,[
attr("", "auto_center_attr", 0, 1, 0,
text('Black',85,499,1,1,1,128,14,4142,11,3,0,0,0,0,-65534,128,14,0,0,"",0,0,0,0,510,'',[
minilines(128,14,0,0,1,0,0,[
mini_line(128,11,3,0,0,0,[
str_block(0,128,11,3,0,0,0,0,0,[
str_seg('Black','Courier',0,80640,128,11,3,0,0,0,0,0,0,0,
	"auto_center_attr")])
])
])])),
attr("label=", "", 1, 0, 0,
text('Black',85,496,1,1,1,0,14,4141,11,3,0,0,0,0,-65534,0,14,0,0,"",0,0,0,0,507,'',[
minilines(0,14,0,0,1,0,0,[
mini_line(0,11,3,0,0,0,[
str_block(0,0,11,3,0,0,0,0,0,[
str_seg('Black','Courier',0,80640,0,11,3,0,0,0,0,0,0,0,
	"")])
])
])]))
])
],
4139,0,0,[
]),
poly('Black','',2,[
	75,490,95,490],0,2,1,4138,1,2,0,0,0,0,0,'2',0,0,
    "0","",[
    0,10,4,0,'10','4','0'],[0,10,4,0,'10','4','0'],[
]),
poly('Black','',2,[
	85,530,85,470],0,2,1,4137,1,2,0,0,0,0,0,'2',0,0,
    "0","",[
    0,10,4,0,'10','4','0'],[0,10,4,0,'10','4','0'],[
])
],
4136,0,0,[
]).
poly('Black','',2,[
	85,530,85,575],0,2,1,4144,0,0,0,0,0,0,0,'2',0,0,
    "0","",[
    0,10,4,0,'10','4','0'],[0,10,4,0,'10','4','0'],[
]).
poly('Black','',2,[
	85,470,85,425],0,2,1,4145,0,0,0,0,0,0,0,'2',0,0,
    "0","",[
    0,10,4,0,'10','4','0'],[0,10,4,0,'10','4','0'],[
]).
poly('Black','',2,[
	295,65,295,125],0,2,1,4147,0,0,0,0,0,0,0,'2',0,0,
    "0","",[
    0,10,4,0,'10','4','0'],[0,10,4,0,'10','4','0'],[
]).
group([
box('Black','',285,265,305,315,2,2,1,4155,0,0,0,0,0,'2',0,[
]),
poly('Black','',2,[
	295,265,295,245],0,2,1,4154,1,2,0,0,0,0,0,'2',0,0,
    "0","",[
    0,10,4,0,'10','4','0'],[0,10,4,0,'10','4','0'],[
]),
poly('Black','',2,[
	295,315,295,335],0,2,1,4153,1,2,0,0,0,0,0,'2',0,0,
    "0","",[
    0,10,4,0,'10','4','0'],[0,10,4,0,'10','4','0'],[
])
],
4152,0,0,[
]).
group([
box('Black','',255,355,275,405,2,2,1,4159,0,0,0,0,0,'2',0,[
]),
poly('Black','',2,[
	265,355,265,335],0,2,1,4158,1,2,0,0,0,0,0,'2',0,0,
    "0","",[
    0,10,4,0,'10','4','0'],[0,10,4,0,'10','4','0'],[
]),
poly('Black','',2,[
	265,405,265,425],0,2,1,4157,1,2,0,0,0,0,0,'2',0,0,
    "0","",[
    0,10,4,0,'10','4','0'],[0,10,4,0,'10','4','0'],[
])
],
4156,0,0,[
]).
group([
poly('Black','',2,[
	370,560,400,530],0,3,1,4183,0,0,0,0,0,0,0,'3',0,0,
    "0","",[
    0,12,5,0,'12','5','0'],[0,12,5,0,'12','5','0'],[
]),
poly('Black','',2,[
	370,530,400,560],0,3,1,4182,0,0,0,0,0,0,0,'3',0,0,
    "0","",[
    0,12,5,0,'12','5','0'],[0,12,5,0,'12','5','0'],[
])
],
4181,0,0,[
]).
group([
poly('Black','',2,[
	340,590,370,560],0,3,1,4186,0,0,0,0,0,0,0,'3',0,0,
    "0","",[
    0,12,5,0,'12','5','0'],[0,12,5,0,'12','5','0'],[
]),
poly('Black','',2,[
	340,560,370,590],0,3,1,4185,0,0,0,0,0,0,0,'3',0,0,
    "0","",[
    0,12,5,0,'12','5','0'],[0,12,5,0,'12','5','0'],[
])
],
4184,0,0,[
]).
group([
poly('Black','',2,[
	310,530,340,500],0,3,1,4189,0,0,0,0,0,0,0,'3',0,0,
    "0","",[
    0,12,5,0,'12','5','0'],[0,12,5,0,'12','5','0'],[
]),
poly('Black','',2,[
	310,500,340,530],0,3,1,4188,0,0,0,0,0,0,0,'3',0,0,
    "0","",[
    0,12,5,0,'12','5','0'],[0,12,5,0,'12','5','0'],[
])
],
4187,0,0,[
]).
group([
poly('Black','',2,[
	250,620,280,590],0,3,1,4192,0,0,0,0,0,0,0,'3',0,0,
    "0","",[
    0,12,5,0,'12','5','0'],[0,12,5,0,'12','5','0'],[
]),
poly('Black','',2,[
	250,590,280,620],0,3,1,4191,0,0,0,0,0,0,0,'3',0,0,
    "0","",[
    0,12,5,0,'12','5','0'],[0,12,5,0,'12','5','0'],[
])
],
4190,0,0,[
]).
poly('Black','',2,[
	295,605,295,515],0,2,1,4193,0,0,0,0,0,0,0,'2',0,0,
    "0","",[
    0,10,4,0,'10','4','0'],[0,10,4,0,'10','4','0'],[
]).
poly('Black','',2,[
	325,545,325,395],0,2,1,4194,0,0,0,0,0,0,0,'2',0,0,
    "0","",[
    0,10,4,0,'10','4','0'],[0,10,4,0,'10','4','0'],[
]).
poly('Black','',2,[
	355,515,355,755],0,2,1,4195,0,0,0,0,0,0,0,'2',0,0,
    "0","",[
    0,10,4,0,'10','4','0'],[0,10,4,0,'10','4','0'],[
]).
poly('Black','',2,[
	385,575,385,785],0,2,1,4196,0,0,0,0,0,0,0,'2',0,0,
    "0","",[
    0,10,4,0,'10','4','0'],[0,10,4,0,'10','4','0'],[
]).
poly('Black','',2,[
	445,485,445,545],0,2,1,4197,0,0,0,0,0,0,0,'2',0,0,
    "0","",[
    0,10,4,0,'10','4','0'],[0,10,4,0,'10','4','0'],[
]).
group([
poly('Black','',2,[
	415,65,415,75],0,2,1,4211,1,2,0,0,0,0,0,'2',0,0,
    "0","",[
    0,10,4,0,'10','4','0'],[0,10,4,0,'10','4','0'],[
]),
poly('Black','',2,[
	405,85,425,85],0,2,1,4210,1,2,0,0,0,0,0,'2',0,0,
    "0","",[
    0,10,4,0,'10','4','0'],[0,10,4,0,'10','4','0'],[
]),
poly('Black','',2,[
	415,85,415,95],0,2,1,4209,1,2,0,0,0,0,0,'2',0,0,
    "0","",[
    0,10,4,0,'10','4','0'],[0,10,4,0,'10','4','0'],[
]),
box('Black','',405,75,425,80,2,2,1,4208,0,0,0,0,0,'2',0,[
]),
poly('Black','',2,[
	420,65,430,65],0,1,1,4207,1,2,0,0,0,0,0,'1',0,0,
    "0","",[
    0,8,3,0,'8','3','0'],[0,8,3,0,'8','3','0'],[
]),
poly('Black','',2,[
	425,60,425,70],0,1,1,4206,1,2,0,0,0,0,0,'1',0,0,
    "0","",[
    0,8,3,0,'8','3','0'],[0,8,3,0,'8','3','0'],[
])
],
4205,0,0,[
]).
group([
box('Black','',405,175,425,225,2,2,1,4219,0,0,0,0,0,'2',0,[
]),
poly('Black','',2,[
	415,175,415,155],0,2,1,4218,1,2,0,0,0,0,0,'2',0,0,
    "0","",[
    0,10,4,0,'10','4','0'],[0,10,4,0,'10','4','0'],[
]),
poly('Black','',2,[
	415,225,415,245],0,2,1,4217,1,2,0,0,0,0,0,'2',0,0,
    "0","",[
    0,10,4,0,'10','4','0'],[0,10,4,0,'10','4','0'],[
])
],
4216,0,0,[
]).
poly('Black','',2,[
	415,125,415,155],0,2,1,4220,0,0,0,0,0,0,0,'2',0,0,
    "0","",[
    0,10,4,0,'10','4','0'],[0,10,4,0,'10','4','0'],[
]).
poly('Black','',2,[
	415,275,415,245],0,2,1,4221,0,0,0,0,0,0,0,'2',0,0,
    "0","",[
    0,10,4,0,'10','4','0'],[0,10,4,0,'10','4','0'],[
]).
group([
poly('Black','',2,[
	430,140,460,110],0,3,1,4245,0,0,0,0,0,0,0,'3',0,0,
    "0","",[
    0,12,5,0,'12','5','0'],[0,12,5,0,'12','5','0'],[
]),
poly('Black','',2,[
	430,110,460,140],0,3,1,4244,0,0,0,0,0,0,0,'3',0,0,
    "0","",[
    0,12,5,0,'12','5','0'],[0,12,5,0,'12','5','0'],[
])
],
4243,0,0,[
]).
poly('Black','',2,[
	475,65,475,125],0,2,1,4246,0,0,0,0,0,0,0,'2',0,0,
    "0","",[
    0,10,4,0,'10','4','0'],[0,10,4,0,'10','4','0'],[
]).
poly('Black','',2,[
	655,65,655,155],0,2,1,4247,0,0,0,0,0,0,0,'2',0,0,
    "0","",[
    0,10,4,0,'10','4','0'],[0,10,4,0,'10','4','0'],[
]).
poly('Black','',2,[
	685,125,685,275],0,2,1,4248,0,0,0,0,0,0,0,'2',0,0,
    "0","",[
    0,10,4,0,'10','4','0'],[0,10,4,0,'10','4','0'],[
]).
group([
poly('Black','',2,[
	655,185,655,195],0,2,1,4258,1,2,0,0,0,0,0,'2',0,0,
    "0","",[
    0,10,4,0,'10','4','0'],[0,10,4,0,'10','4','0'],[
]),
poly('Black','',2,[
	645,195,665,195],0,5,1,4257,1,2,0,0,0,0,0,'5',0,0,
    "0","",[
    0,18,7,0,'18','7','0'],[0,18,7,0,'18','7','0'],[
]),
poly('Black','',2,[
	645,205,665,205],0,5,1,4256,1,2,0,0,0,0,0,'5',0,0,
    "0","",[
    0,18,7,0,'18','7','0'],[0,18,7,0,'18','7','0'],[
]),
poly('Black','',2,[
	655,205,655,215],0,2,1,4255,1,2,0,0,0,0,0,'2',0,0,
    "0","",[
    0,10,4,0,'10','4','0'],[0,10,4,0,'10','4','0'],[
])
],
4254,0,0,[
]).
group([
box('Black','',705,325,725,375,2,2,1,4266,0,0,0,0,0,'2',0,[
]),
poly('Black','',2,[
	715,325,715,305],0,2,1,4265,1,2,0,0,0,0,0,'2',0,0,
    "0","",[
    0,10,4,0,'10','4','0'],[0,10,4,0,'10','4','0'],[
]),
poly('Black','',2,[
	715,375,715,395],0,2,1,4264,1,2,0,0,0,0,0,'2',0,0,
    "0","",[
    0,10,4,0,'10','4','0'],[0,10,4,0,'10','4','0'],[
])
],
4263,0,0,[
]).
poly('Black','',2,[
	715,275,715,305],0,2,1,4267,0,0,0,0,0,0,0,'2',0,0,
    "0","",[
    0,10,4,0,'10','4','0'],[0,10,4,0,'10','4','0'],[
]).
poly('Black','',2,[
	715,395,715,425],0,2,1,4268,0,0,0,0,0,0,0,'2',0,0,
    "0","",[
    0,10,4,0,'10','4','0'],[0,10,4,0,'10','4','0'],[
]).
poly('Black','',2,[
	625,545,625,725],0,2,1,4269,0,0,0,0,0,0,0,'2',0,0,
    "0","",[
    0,10,4,0,'10','4','0'],[0,10,4,0,'10','4','0'],[
]).
poly('Black','',2,[
	715,455,715,575],0,2,1,4270,0,0,0,0,0,0,0,'2',0,0,
    "0","",[
    0,10,4,0,'10','4','0'],[0,10,4,0,'10','4','0'],[
]).
poly('Black','',2,[
	685,395,685,635],0,2,1,4271,0,0,0,0,0,0,0,'2',0,0,
    "0","",[
    0,10,4,0,'10','4','0'],[0,10,4,0,'10','4','0'],[
]).
poly('Black','',2,[
	655,335,655,605],0,2,1,4272,0,0,0,0,0,0,0,'2',0,0,
    "0","",[
    0,10,4,0,'10','4','0'],[0,10,4,0,'10','4','0'],[
]).
poly('Black','',2,[
	625,1055,625,815],0,2,1,4274,0,0,0,0,0,0,0,'2',0,0,
    "0","",[
    0,10,4,0,'10','4','0'],[0,10,4,0,'10','4','0'],[
]).
group([
poly('Black','',2,[
	595,845,595,855],0,2,1,4284,1,2,0,0,0,0,0,'2',0,0,
    "0","",[
    0,10,4,0,'10','4','0'],[0,10,4,0,'10','4','0'],[
]),
poly('Black','',2,[
	585,855,605,855],0,5,1,4283,1,2,0,0,0,0,0,'5',0,0,
    "0","",[
    0,18,7,0,'18','7','0'],[0,18,7,0,'18','7','0'],[
]),
poly('Black','',2,[
	585,865,605,865],0,5,1,4282,1,2,0,0,0,0,0,'5',0,0,
    "0","",[
    0,18,7,0,'18','7','0'],[0,18,7,0,'18','7','0'],[
]),
poly('Black','',2,[
	595,865,595,875],0,2,1,4281,1,2,0,0,0,0,0,'2',0,0,
    "0","",[
    0,10,4,0,'10','4','0'],[0,10,4,0,'10','4','0'],[
])
],
4280,0,0,[
]).
group([
poly('Black','',2,[
	640,1070,670,1040],0,3,1,4290,0,0,0,0,0,0,0,'3',0,0,
    "0","",[
    0,12,5,0,'12','5','0'],[0,12,5,0,'12','5','0'],[
]),
poly('Black','',2,[
	640,1040,670,1070],0,3,1,4289,0,0,0,0,0,0,0,'3',0,0,
    "0","",[
    0,12,5,0,'12','5','0'],[0,12,5,0,'12','5','0'],[
])
],
4288,0,0,[
]).
group([
poly('Black','',2,[
	670,1130,700,1100],0,3,1,4293,0,0,0,0,0,0,0,'3',0,0,
    "0","",[
    0,12,5,0,'12','5','0'],[0,12,5,0,'12','5','0'],[
]),
poly('Black','',2,[
	670,1100,700,1130],0,3,1,4292,0,0,0,0,0,0,0,'3',0,0,
    "0","",[
    0,12,5,0,'12','5','0'],[0,12,5,0,'12','5','0'],[
])
],
4291,0,0,[
]).
poly('Black','',2,[
	685,1055,685,1145],0,2,1,4295,0,0,0,0,0,0,0,'2',0,0,
    "0","",[
    0,10,4,0,'10','4','0'],[0,10,4,0,'10','4','0'],[
]).
poly('Black','',2,[
	715,1115,715,1205],0,2,1,4296,0,0,0,0,0,0,0,'2',0,0,
    "0","",[
    0,10,4,0,'10','4','0'],[0,10,4,0,'10','4','0'],[
]).
poly('Black','',2,[
	805,1085,805,1175],0,2,1,4297,0,0,0,0,0,0,0,'2',0,0,
    "0","",[
    0,10,4,0,'10','4','0'],[0,10,4,0,'10','4','0'],[
]).
poly('#00ae00','',2,[
	835,1115,835,935],0,2,1,4298,0,0,0,0,0,0,0,'2',0,0,
    "0","",[
    0,10,4,0,'10','4','0'],[0,10,4,0,'10','4','0'],[
]).
poly('#00ae00','',2,[
	685,935,685,845],0,2,1,4307,0,0,0,0,0,0,0,'2',0,0,
    "0","",[
    0,10,4,0,'10','4','0'],[0,10,4,0,'10','4','0'],[
]).
poly('Black','',2,[
	715,725,715,965],0,2,1,4309,0,0,0,0,0,0,0,'2',0,0,
    "0","",[
    0,10,4,0,'10','4','0'],[0,10,4,0,'10','4','0'],[
]).
poly('Black','',2,[
	745,755,745,995],0,2,1,4310,0,0,0,0,0,0,0,'2',0,0,
    "0","",[
    0,10,4,0,'10','4','0'],[0,10,4,0,'10','4','0'],[
]).
poly('Black','',2,[
	775,785,775,1025],0,2,1,4311,0,0,0,0,0,0,0,'2',0,0,
    "0","",[
    0,10,4,0,'10','4','0'],[0,10,4,0,'10','4','0'],[
]).
text('Black',735,1014,1,0,1,16,14,4313,11,3,0,0,0,0,-65534,16,14,0,0,"",0,0,0,0,1025,'',[
minilines(16,14,0,0,0,0,0,[
mini_line(16,11,3,0,0,0,[
str_block(0,16,11,3,0,-1,0,0,0,[
str_seg('Black','Courier',0,80640,16,11,3,0,-1,0,0,0,0,0,
	"J7")])
])
])]).
text('Black',105,899,1,0,1,16,14,4317,11,3,0,0,0,0,-65534,16,14,0,0,"",0,0,0,0,910,'',[
minilines(16,14,0,0,0,0,0,[
mini_line(16,11,3,0,0,0,[
str_block(0,16,11,3,0,-1,0,0,0,[
str_seg('Black','Courier',0,80640,16,11,3,0,-1,0,0,0,0,0,
	"J6")])
])
])]).
text('Black',105,689,1,0,1,16,14,4319,11,3,0,0,0,0,-65534,16,14,0,0,"",0,0,0,0,700,'',[
minilines(16,14,0,0,0,0,0,[
mini_line(16,11,3,0,0,0,[
str_block(0,16,11,3,0,-1,0,0,0,[
str_seg('Black','Courier',0,80640,16,11,3,0,-1,0,0,0,0,0,
	"J5")])
])
])]).
text('Black',135,449,1,0,1,16,14,4321,11,3,0,0,0,0,-65534,16,14,0,0,"",0,0,0,0,460,'',[
minilines(16,14,0,0,0,0,0,[
mini_line(16,11,3,0,0,0,[
str_block(0,16,11,3,0,-1,0,0,0,[
str_seg('Black','Courier',0,80640,16,11,3,0,-1,0,0,0,0,0,
	"J4")])
])
])]).
text('Black',105,299,1,0,1,16,14,4323,11,3,0,0,0,0,-65534,16,14,0,0,"",0,0,0,0,310,'',[
minilines(16,14,0,0,0,0,0,[
mini_line(16,11,3,0,0,0,[
str_block(0,16,11,3,0,-1,0,0,0,[
str_seg('Black','Courier',0,80640,16,11,3,0,-1,0,0,0,0,0,
	"J2")])
])
])]).
text('Black',165,299,1,0,1,16,14,4325,11,3,0,0,0,0,-65534,16,14,0,0,"",0,0,0,0,310,'',[
minilines(16,14,0,0,0,0,0,[
mini_line(16,11,3,0,0,0,[
str_block(0,16,11,3,0,-1,0,0,0,[
str_seg('Black','Courier',0,80640,16,11,3,0,-1,0,0,0,0,0,
	"J3")])
])
])]).
text('Black',315,89,1,0,1,16,14,4327,11,3,0,0,0,0,-65534,16,14,0,0,"",0,0,0,0,100,'',[
minilines(16,14,0,0,0,0,0,[
mini_line(16,11,3,0,0,0,[
str_block(0,16,11,3,0,-1,0,0,0,[
str_seg('Black','Courier',0,80640,16,11,3,0,-1,0,0,0,0,0,
	"J1")])
])
])]).
text('Black',237,886,1,0,1,16,18,4329,11,3,0,0,0,0,-65534,16,14,0,0,"",0,1,0,0,899,'',[
	237,886,237,886,255,902,-5.23869e-13,-1000,1000,-5.23869e-13,-41,0,236,885,256,903],[
minilines(16,14,0,0,0,0,0,[
mini_line(16,11,3,0,0,0,[
str_block(0,16,11,3,0,-1,0,0,0,[
str_seg('Black','Courier',0,80640,16,11,3,0,-1,0,0,0,0,0,
	"R5")])
])
])]).
text('Black',267,886,1,0,1,16,18,4338,11,3,0,0,0,0,-65534,16,14,0,0,"",0,1,0,0,899,'',[
	267,886,267,886,285,902,-5.23869e-13,-1000,1000,-5.23869e-13,-41,0,266,885,286,903],[
minilines(16,14,0,0,0,0,0,[
mini_line(16,11,3,0,0,0,[
str_block(0,16,11,3,0,-1,0,0,0,[
str_seg('Black','Courier',0,80640,16,11,3,0,-1,0,0,0,0,0,
	"R6")])
])
])]).
text('Black',297,886,1,0,1,16,18,4339,11,3,0,0,0,0,-65534,16,14,0,0,"",0,1,0,0,899,'',[
	297,886,297,886,315,902,-5.23869e-13,-1000,1000,-5.23869e-13,-41,0,296,885,316,903],[
minilines(16,14,0,0,0,0,0,[
mini_line(16,11,3,0,0,0,[
str_block(0,16,11,3,0,-1,0,0,0,[
str_seg('Black','Courier',0,80640,16,11,3,0,-1,0,0,0,0,0,
	"R7")])
])
])]).
text('Black',327,886,1,0,1,16,18,4340,11,3,0,0,0,0,-65534,16,14,0,0,"",0,1,0,0,899,'',[
	327,886,327,886,345,902,-5.23869e-13,-1000,1000,-5.23869e-13,-41,0,326,885,346,903],[
minilines(16,14,0,0,0,0,0,[
mini_line(16,11,3,0,0,0,[
str_block(0,16,11,3,0,-1,0,0,0,[
str_seg('Black','Courier',0,80640,16,11,3,0,-1,0,0,0,0,0,
	"R8")])
])
])]).
text('Black',305,934,1,0,1,16,14,4347,11,3,0,0,0,0,-65534,16,14,0,0,"",0,0,0,0,945,'',[
minilines(16,14,0,0,0,0,0,[
mini_line(16,11,3,0,0,0,[
str_block(0,16,11,3,0,-1,0,0,0,[
str_seg('Black','Courier',0,80640,16,11,3,0,-1,0,0,0,0,0,
	"D4")])
])
])]).
text('Black',335,934,1,0,1,16,14,4349,11,3,0,0,0,0,-65534,16,14,0,0,"",0,0,0,0,945,'',[
minilines(16,14,0,0,0,0,0,[
mini_line(16,11,3,0,0,0,[
str_block(0,16,11,3,0,-1,0,0,0,[
str_seg('Black','Courier',0,80640,16,11,3,0,-1,0,0,0,0,0,
	"D3")])
])
])]).
text('Black',297,1051,1,0,1,16,27,4354,11,3,0,0,0,0,-65534,24,14,0,0,"",0,1,0,0,1064,'',[
	297,1051,297,1051,324,1067,-5.23869e-13,-1000,1000,-5.23869e-13,-41,0,296,1050,325,1068],[
minilines(24,14,0,0,0,0,0,[
mini_line(24,11,3,0,0,0,[
str_block(0,24,11,3,0,-1,0,0,0,[
str_seg('Black','Courier',0,80640,24,11,3,0,-1,0,0,0,0,0,
	"R11")])
])
])]).
text('Black',417,931,1,0,1,16,27,4355,11,3,0,0,0,0,-65534,24,14,0,0,"",0,1,0,0,944,'',[
	417,931,417,931,444,947,-5.23869e-13,-1000,1000,-5.23869e-13,-41,0,416,930,445,948],[
minilines(24,14,0,0,0,0,0,[
mini_line(24,11,3,0,0,0,[
str_block(0,24,11,3,0,-1,0,0,0,[
str_seg('Black','Courier',0,80640,24,11,3,0,-1,0,0,0,0,0,
	"R12")])
])
])]).
text('Black',507,1081,1,0,1,16,27,4356,11,3,0,0,0,0,-65534,24,14,0,0,"",0,1,0,0,1094,'',[
	507,1081,507,1081,534,1097,-5.23869e-13,-1000,1000,-5.23869e-13,-41,0,506,1080,535,1098],[
minilines(24,14,0,0,0,0,0,[
mini_line(24,11,3,0,0,0,[
str_block(0,24,11,3,0,-1,0,0,0,[
str_seg('Black','Courier',0,80640,24,11,3,0,-1,0,0,0,0,0,
	"R10")])
])
])]).
text('Black',297,391,1,0,1,16,18,4357,11,3,0,0,0,0,-65534,16,14,0,0,"",0,1,0,0,404,'',[
	297,391,297,391,315,407,-5.23869e-13,-1000,1000,-5.23869e-13,-41,0,296,390,316,408],[
minilines(16,14,0,0,0,0,0,[
mini_line(16,11,3,0,0,0,[
str_block(0,16,11,3,0,-1,0,0,0,[
str_seg('Black','Courier',0,80640,16,11,3,0,-1,0,0,0,0,0,
	"R4")])
])
])]).
text('Black',327,301,1,0,1,16,18,4358,11,3,0,0,0,0,-65534,16,14,0,0,"",0,1,0,0,314,'',[
	327,301,327,301,345,317,-5.23869e-13,-1000,1000,-5.23869e-13,-41,0,326,300,346,318],[
minilines(16,14,0,0,0,0,0,[
mini_line(16,11,3,0,0,0,[
str_block(0,16,11,3,0,-1,0,0,0,[
str_seg('Black','Courier',0,80640,16,11,3,0,-1,0,0,0,0,0,
	"R9")])
])
])]).
text('Black',447,211,1,0,1,16,18,4360,11,3,0,0,0,0,-65534,16,14,0,0,"",0,1,0,0,224,'',[
	447,211,447,211,465,227,-5.23869e-13,-1000,1000,-5.23869e-13,-41,0,446,210,466,228],[
minilines(16,14,0,0,0,0,0,[
mini_line(16,11,3,0,0,0,[
str_block(0,16,11,3,0,-1,0,0,0,[
str_seg('Black','Courier',0,80640,16,11,3,0,-1,0,0,0,0,0,
	"R2")])
])
])]).
text('Black',747,361,1,0,1,16,18,4361,11,3,0,0,0,0,-65534,16,14,0,0,"",0,1,0,0,374,'',[
	747,361,747,361,765,377,-5.23869e-13,-1000,1000,-5.23869e-13,-41,0,746,360,766,378],[
minilines(16,14,0,0,0,0,0,[
mini_line(16,11,3,0,0,0,[
str_block(0,16,11,3,0,-1,0,0,0,[
str_seg('Black','Courier',0,80640,16,11,3,0,-1,0,0,0,0,0,
	"R1")])
])
])]).
text('Black',90,519,1,0,1,16,14,4377,11,3,0,0,0,0,-65534,16,14,0,0,"",0,0,0,0,530,'',[
minilines(16,14,0,0,0,0,0,[
mini_line(16,11,3,0,0,0,[
str_block(0,16,11,3,0,-1,0,0,0,[
str_seg('Black','Courier',0,80640,16,11,3,0,-1,0,0,0,0,0,
	"D1")])
])
])]).
text('Black',195,974,1,0,1,16,14,4381,11,3,0,0,0,0,-65534,16,14,0,0,"",0,0,0,0,985,'',[
minilines(16,14,0,0,0,0,0,[
mini_line(16,11,3,0,0,0,[
str_block(0,16,11,3,0,-1,0,0,0,[
str_seg('Black','Courier',0,80640,16,11,3,0,-1,0,0,0,0,0,
	"C3")])
])
])]).
text('Black',555,854,1,0,1,16,14,4383,11,3,0,0,0,0,-65534,16,14,0,0,"",0,0,0,0,865,'',[
minilines(16,14,0,0,0,0,0,[
mini_line(16,11,3,0,0,0,[
str_block(0,16,11,3,0,-1,0,0,0,[
str_seg('Black','Courier',0,80640,16,11,3,0,-1,0,0,0,0,0,
	"C4")])
])
])]).
text('Black',430,74,1,0,1,16,14,4387,11,3,0,0,0,0,-65534,16,14,0,0,"",0,0,0,0,85,'',[
minilines(16,14,0,0,0,0,0,[
mini_line(16,11,3,0,0,0,[
str_block(0,16,11,3,0,-1,0,0,0,[
str_seg('Black','Courier',0,80640,16,11,3,0,-1,0,0,0,0,0,
	"C1")])
])
])]).
text('Black',645,219,1,0,1,16,14,4389,11,3,0,0,0,0,-65534,16,14,0,0,"",0,0,0,0,230,'',[
minilines(16,14,0,0,0,0,0,[
mini_line(16,11,3,0,0,0,[
str_block(0,16,11,3,0,-1,0,0,0,[
str_seg('Black','Courier',0,80640,16,11,3,0,-1,0,0,0,0,0,
	"C2")])
])
])]).
text('Black',50,1263,10,0,1,648,143,4426,12,3,0,0,0,0,-65534,648,143,0,0,"",0,0,0,0,1275,'',[
minilines(648,143,0,0,0,0,0,[
mini_line(264,12,3,0,0,0,[
str_block(0,264,12,3,0,-1,0,0,0,[
str_seg('Black','Courier-Bold',1,80640,264,12,3,0,-1,1,0,0,0,0,
	"Joyweiler Stripboard diagram V5.0")])
]),
mini_line(0,11,3,0,0,0,[
str_block(0,0,11,3,0,0,0,0,0,[
str_seg('Black','Courier',0,80640,0,11,3,0,0,0,0,0,0,0,
	"")])
]),
mini_line(648,11,3,0,0,0,[
str_block(0,648,11,3,0,-3,0,0,0,[
str_seg('Black','Courier',0,80640,648,11,3,0,-3,0,0,0,0,0,
	"Licenced under Creative Commons Attribution-ShareAlike 4.0 International License.")])
]),
mini_line(368,11,3,0,0,0,[
str_block(0,368,11,3,0,-1,0,0,0,[
str_seg('Black','Courier',0,80640,368,11,3,0,-1,0,0,0,0,0,
	"http://creativecommons.org/licenses/by-sa/4.0/")])
]),
mini_line(328,12,3,0,0,0,[
str_block(0,328,12,3,0,0,0,0,0,[
str_seg('Black','Courier-Bold',1,80640,328,12,3,0,0,0,0,0,0,0,
	"https://gitlab.com/edge-records/joyweiler")])
]),
mini_line(0,12,3,0,0,0,[
str_block(0,0,12,3,0,0,0,0,0,[
str_seg('Black','Courier-Bold',1,80640,0,12,3,0,0,0,0,0,0,0,
	"")])
]),
mini_line(136,11,3,0,0,0,[
str_block(0,136,11,3,0,0,0,0,0,[
str_seg('Black','Courier',0,80640,136,11,3,0,0,0,0,0,0,0,
	"Green lines = GND")])
]),
mini_line(120,11,3,0,0,0,[
str_block(0,120,11,3,0,0,0,0,0,[
str_seg('Black','Courier',0,80640,120,11,3,0,0,0,0,0,0,0,
	"Red lines = +5V")])
]),
mini_line(344,11,3,0,0,0,[
str_block(0,344,11,3,0,0,0,0,0,[
str_seg('Black','Courier',0,80640,344,11,3,0,0,0,0,0,0,0,
	"Horizontal lines have implicit connectivity")])
]),
mini_line(288,11,3,0,0,0,[
str_block(0,288,11,3,0,-1,0,0,0,[
str_seg('Black','Courier',0,80640,288,11,3,0,-1,0,0,0,0,0,
	"See electric diagram for part values")])
])
])]).
poly('Black','',2,[
	295,245,295,155],0,2,1,4535,0,0,0,0,0,0,0,'2',0,0,
    "0","",[
    0,10,4,0,'10','4','0'],[0,10,4,0,'10','4','0'],[
]).
poly('Black','',2,[
	295,335,295,425],0,2,1,4536,0,0,0,0,0,0,0,'2',0,0,
    "0","",[
    0,10,4,0,'10','4','0'],[0,10,4,0,'10','4','0'],[
]).
poly('Black','',2,[
	415,335,415,1085],0,2,1,4537,0,0,0,0,0,0,0,'2',0,0,
    "0","",[
    0,10,4,0,'10','4','0'],[0,10,4,0,'10','4','0'],[
]).
poly('Black','',2,[
	715,605,715,665],0,2,1,4540,0,0,0,0,0,0,0,'2',0,0,
    "0","",[
    0,10,4,0,'10','4','0'],[0,10,4,0,'10','4','0'],[
]).
poly('Black','',2,[
	265,185,265,245],0,2,1,4541,0,0,0,0,0,0,0,'2',0,0,
    "0","",[
    0,10,4,0,'10','4','0'],[0,10,4,0,'10','4','0'],[
]).
poly('Black','',2,[
	745,245,745,695],0,2,1,4543,0,0,0,0,0,0,0,'2',0,0,
    "0","",[
    0,10,4,0,'10','4','0'],[0,10,4,0,'10','4','0'],[
]).
group([
poly('Black','',2,[
	430,200,460,170],0,3,1,6089,0,0,0,0,0,0,0,'3',0,0,
    "0","",[
    0,12,5,0,'12','5','0'],[0,12,5,0,'12','5','0'],[
]),
poly('Black','',2,[
	430,170,460,200],0,3,1,6090,0,0,0,0,0,0,0,'3',0,0,
    "0","",[
    0,12,5,0,'12','5','0'],[0,12,5,0,'12','5','0'],[
])
],
6088,0,0,[
]).
poly('Black','',2,[
	475,1025,475,995],0,2,1,6095,0,0,0,0,0,0,0,'2',0,0,
    "0","",[
    0,10,4,0,'10','4','0'],[0,10,4,0,'10','4','0'],[
]).
poly('Black','',2,[
	475,1115,475,1145],0,2,1,6096,0,0,0,0,0,0,0,'2',0,0,
    "0","",[
    0,10,4,0,'10','4','0'],[0,10,4,0,'10','4','0'],[
]).
group([
poly('Black','',2,[
	550,1160,580,1130],0,3,1,6098,0,0,0,0,0,0,0,'3',0,0,
    "0","",[
    0,12,5,0,'12','5','0'],[0,12,5,0,'12','5','0'],[
]),
poly('Black','',2,[
	550,1130,580,1160],0,3,1,6099,0,0,0,0,0,0,0,'3',0,0,
    "0","",[
    0,12,5,0,'12','5','0'],[0,12,5,0,'12','5','0'],[
])
],
6097,0,0,[
]).
poly('Black','',2,[
	655,1145,655,1115],0,2,1,6102,0,0,0,0,0,0,0,'2',0,0,
    "0","",[
    0,10,4,0,'10','4','0'],[0,10,4,0,'10','4','0'],[
]).
poly('Black','',2,[
	385,185,385,335],0,2,1,6698,0,0,0,0,0,0,0,'2',0,0,
    "0","",[
    0,10,4,0,'10','4','0'],[0,10,4,0,'10','4','0'],[
]).
group([
box('Black','',490,80,610,200,2,2,1,7390,0,0,0,0,0,'2',0,[
]),
poly('Black','',2,[
	550,80,550,85],0,2,1,7389,0,2,0,0,0,0,0,'2',0,0,
    "0","",[
    0,10,4,0,'10','4','0'],[0,10,4,0,'10','4','0'],[
]),
text('Black',500,89,1,0,1,8,14,7388,11,3,2,0,0,0,-65534,8,14,0,0,"",0,0,0,0,100,'',[
minilines(8,14,0,0,0,0,0,[
mini_line(8,11,3,0,0,0,[
str_block(0,8,11,3,0,-1,0,0,0,[
str_seg('Black','Courier',0,80640,8,11,3,0,-1,0,0,0,0,0,
	"1")])
])
])]),
text('Black',500,119,1,0,1,8,14,7387,11,3,2,0,0,0,-65534,8,14,0,0,"",0,0,0,0,130,'',[
minilines(8,14,0,0,0,0,0,[
mini_line(8,11,3,0,0,0,[
str_block(0,8,11,3,0,-1,0,0,0,[
str_seg('Black','Courier',0,80640,8,11,3,0,-1,0,0,0,0,0,
	"2")])
])
])]),
text('Black',500,149,1,0,1,8,14,7386,11,3,2,0,0,0,-65534,8,14,0,0,"",0,0,0,0,160,'',[
minilines(8,14,0,0,0,0,0,[
mini_line(8,11,3,0,0,0,[
str_block(0,8,11,3,0,-1,0,0,0,[
str_seg('Black','Courier',0,80640,8,11,3,0,-1,0,0,0,0,0,
	"3")])
])
])]),
text('Black',500,179,1,0,1,8,14,7385,11,3,2,0,0,0,-65534,8,14,0,0,"",0,0,0,0,190,'',[
minilines(8,14,0,0,0,0,0,[
mini_line(8,11,3,0,0,0,[
str_block(0,8,11,3,0,-1,0,0,0,[
str_seg('Black','Courier',0,80640,8,11,3,0,-1,0,0,0,0,0,
	"4")])
])
])]),
text('Black',595,89,1,0,1,8,14,7384,11,3,2,0,0,0,-65534,8,14,0,0,"",0,0,0,0,100,'',[
minilines(8,14,0,0,0,0,0,[
mini_line(8,11,3,0,0,0,[
str_block(0,8,11,3,0,-1,0,0,0,[
str_seg('Black','Courier',0,80640,8,11,3,0,-1,0,0,0,0,0,
	"8")])
])
])]),
text('Black',595,119,1,0,1,8,14,7383,11,3,2,0,0,0,-65534,8,14,0,0,"",0,0,0,0,130,'',[
minilines(8,14,0,0,0,0,0,[
mini_line(8,11,3,0,0,0,[
str_block(0,8,11,3,0,-1,0,0,0,[
str_seg('Black','Courier',0,80640,8,11,3,0,-1,0,0,0,0,0,
	"7")])
])
])]),
text('Black',595,149,1,0,1,8,14,7382,11,3,2,0,0,0,-65534,8,14,0,0,"",0,0,0,0,160,'',[
minilines(8,14,0,0,0,0,0,[
mini_line(8,11,3,0,0,0,[
str_block(0,8,11,3,0,-1,0,0,0,[
str_seg('Black','Courier',0,80640,8,11,3,0,-1,0,0,0,0,0,
	"6")])
])
])]),
text('Black',595,179,1,0,1,8,14,7381,11,3,2,0,0,0,-65534,8,14,0,0,"",0,0,0,0,190,'',[
minilines(8,14,0,0,0,0,0,[
mini_line(8,11,3,0,0,0,[
str_block(0,8,11,3,0,-1,0,0,0,[
str_seg('Black','Courier',0,80640,8,11,3,0,-1,0,0,0,0,0,
	"5")])
])
])]),
poly('Black','',2,[
	550,80,550,200],0,1,1,7380,0,0,0,0,0,0,0,'1',0,0,
    "0","",[
    0,8,3,0,'8','3','0'],[0,8,3,0,'8','3','0'],[
]),
poly('Black','',2,[
	580,80,580,200],0,1,1,7379,0,0,0,0,0,0,0,'1',0,0,
    "0","",[
    0,8,3,0,'8','3','0'],[0,8,3,0,'8','3','0'],[
]),
poly('Black','',2,[
	520,80,520,200],0,1,1,7378,0,0,0,0,0,0,0,'1',0,0,
    "0","",[
    0,8,3,0,'8','3','0'],[0,8,3,0,'8','3','0'],[
]),
poly('Black','',2,[
	490,110,520,110],0,1,1,7377,0,0,0,0,0,0,0,'1',0,0,
    "0","",[
    0,8,3,0,'8','3','0'],[0,8,3,0,'8','3','0'],[
]),
poly('Black','',2,[
	490,140,520,140],0,1,1,7376,0,0,0,0,0,0,0,'1',0,0,
    "0","",[
    0,8,3,0,'8','3','0'],[0,8,3,0,'8','3','0'],[
]),
poly('Black','',2,[
	490,170,520,170],0,1,1,7375,0,0,0,0,0,0,0,'1',0,0,
    "0","",[
    0,8,3,0,'8','3','0'],[0,8,3,0,'8','3','0'],[
]),
poly('Black','',2,[
	550,110,610,110],0,1,1,7374,0,0,0,0,0,0,0,'1',0,0,
    "0","",[
    0,8,3,0,'8','3','0'],[0,8,3,0,'8','3','0'],[
]),
poly('Black','',2,[
	550,140,610,140],0,1,1,7373,0,0,0,0,0,0,0,'1',0,0,
    "0","",[
    0,8,3,0,'8','3','0'],[0,8,3,0,'8','3','0'],[
]),
poly('Black','',2,[
	550,170,610,170],0,1,1,7372,0,0,0,0,0,0,0,'1',0,0,
    "0","",[
    0,8,3,0,'8','3','0'],[0,8,3,0,'8','3','0'],[
]),
group([
poly('Black','',2,[
	550,110,580,80],0,3,1,7371,0,0,0,0,0,0,0,'3',0,0,
    "0","",[
    0,12,5,0,'12','5','0'],[0,12,5,0,'12','5','0'],[
]),
poly('Black','',2,[
	550,80,580,110],0,3,1,7370,0,0,0,0,0,0,0,'3',0,0,
    "0","",[
    0,12,5,0,'12','5','0'],[0,12,5,0,'12','5','0'],[
])
],
7369,0,0,[
]),
group([
poly('Black','',2,[
	550,140,580,110],0,3,1,7368,0,0,0,0,0,0,0,'3',0,0,
    "0","",[
    0,12,5,0,'12','5','0'],[0,12,5,0,'12','5','0'],[
]),
poly('Black','',2,[
	550,110,580,140],0,3,1,7367,0,0,0,0,0,0,0,'3',0,0,
    "0","",[
    0,12,5,0,'12','5','0'],[0,12,5,0,'12','5','0'],[
])
],
7366,0,0,[
]),
group([
poly('Black','',2,[
	550,170,580,140],0,3,1,7365,0,0,0,0,0,0,0,'3',0,0,
    "0","",[
    0,12,5,0,'12','5','0'],[0,12,5,0,'12','5','0'],[
]),
poly('Black','',2,[
	550,140,580,170],0,3,1,7364,0,0,0,0,0,0,0,'3',0,0,
    "0","",[
    0,12,5,0,'12','5','0'],[0,12,5,0,'12','5','0'],[
])
],
7363,0,0,[
]),
group([
poly('Black','',2,[
	550,200,580,170],0,3,1,7362,0,0,0,0,0,0,0,'3',0,0,
    "0","",[
    0,12,5,0,'12','5','0'],[0,12,5,0,'12','5','0'],[
]),
poly('Black','',2,[
	550,170,580,200],0,3,1,7361,0,0,0,0,0,0,0,'3',0,0,
    "0","",[
    0,12,5,0,'12','5','0'],[0,12,5,0,'12','5','0'],[
])
],
7360,0,0,[
]),
poly('Black','',3,[
	535,80,550,100,565,80],0,2,1,7359,1,2,0,0,0,0,0,'2',0,0,
    "4","",[
    0,10,4,0,'10','4','0'],[0,10,4,0,'10','4','0'],[
])
],
7358,0,0,[
]).
text('Black',574,177,1,0,1,16,27,4395,11,3,0,0,0,0,-65534,24,14,0,0,"",0,1,0,0,190,'',[
	574,177,574,177,601,193,-5.23869e-13,-1000,1000,-5.23869e-13,-46,0,573,176,602,194],[
minilines(24,14,0,0,0,0,0,[
mini_line(24,11,3,0,0,0,[
str_block(0,24,11,3,0,-1,0,0,0,[
str_seg('Black','Courier',0,80640,24,11,3,0,-1,0,0,0,0,0,
	"555")])
])
])]).
text('Black',525,119,1,0,1,16,14,4393,11,3,0,0,0,0,-65534,16,14,0,0,"",0,0,0,0,130,'',[
minilines(16,14,0,0,0,0,0,[
mini_line(16,11,3,0,0,0,[
str_block(0,16,11,3,0,-1,0,0,0,[
str_seg('Black','Courier',0,80640,16,11,3,0,-1,0,0,0,0,0,
	"U1")])
])
])]).
group([
box('Black','',490,920,610,1130,2,2,1,8802,0,0,0,0,0,'2',0,[
]),
poly('Black','',2,[
	550,920,550,925],0,2,1,8801,0,2,0,0,0,0,0,'2',0,0,
    "0","",[
    0,10,4,0,'10','4','0'],[0,10,4,0,'10','4','0'],[
]),
text('Black',500,929,1,0,1,8,14,8800,11,3,2,0,0,0,-65534,8,14,0,0,"",0,0,0,0,940,'',[
minilines(8,14,0,0,0,0,0,[
mini_line(8,11,3,0,0,0,[
str_block(0,8,11,3,0,-1,0,0,0,[
str_seg('Black','Courier',0,80640,8,11,3,0,-1,0,0,0,0,0,
	"1")])
])
])]),
text('Black',500,959,1,0,1,8,14,8799,11,3,2,0,0,0,-65534,8,14,0,0,"",0,0,0,0,970,'',[
minilines(8,14,0,0,0,0,0,[
mini_line(8,11,3,0,0,0,[
str_block(0,8,11,3,0,-1,0,0,0,[
str_seg('Black','Courier',0,80640,8,11,3,0,-1,0,0,0,0,0,
	"2")])
])
])]),
text('Black',500,989,1,0,1,8,14,8798,11,3,2,0,0,0,-65534,8,14,0,0,"",0,0,0,0,1000,'',[
minilines(8,14,0,0,0,0,0,[
mini_line(8,11,3,0,0,0,[
str_block(0,8,11,3,0,-1,0,0,0,[
str_seg('Black','Courier',0,80640,8,11,3,0,-1,0,0,0,0,0,
	"3")])
])
])]),
text('Black',500,1019,1,0,1,8,14,8797,11,3,2,0,0,0,-65534,8,14,0,0,"",0,0,0,0,1030,'',[
minilines(8,14,0,0,0,0,0,[
mini_line(8,11,3,0,0,0,[
str_block(0,8,11,3,0,-1,0,0,0,[
str_seg('Black','Courier',0,80640,8,11,3,0,-1,0,0,0,0,0,
	"4")])
])
])]),
text('Black',500,1049,1,0,1,8,14,8796,11,3,2,0,0,0,-65534,8,14,0,0,"",0,0,0,0,1060,'',[
minilines(8,14,0,0,0,0,0,[
mini_line(8,11,3,0,0,0,[
str_block(0,8,11,3,0,-1,0,0,0,[
str_seg('Black','Courier',0,80640,8,11,3,0,-1,0,0,0,0,0,
	"5")])
])
])]),
text('Black',500,1079,1,0,1,8,14,8795,11,3,2,0,0,0,-65534,8,14,0,0,"",0,0,0,0,1090,'',[
minilines(8,14,0,0,0,0,0,[
mini_line(8,11,3,0,0,0,[
str_block(0,8,11,3,0,-1,0,0,0,[
str_seg('Black','Courier',0,80640,8,11,3,0,-1,0,0,0,0,0,
	"6")])
])
])]),
text('Black',500,1109,1,0,1,8,14,8794,11,3,2,0,0,0,-65534,8,14,0,0,"",0,0,0,0,1120,'',[
minilines(8,14,0,0,0,0,0,[
mini_line(8,11,3,0,0,0,[
str_block(0,8,11,3,0,-1,0,0,0,[
str_seg('Black','Courier',0,80640,8,11,3,0,-1,0,0,0,0,0,
	"7")])
])
])]),
text('Black',590,929,1,0,1,16,14,8793,11,3,2,0,0,0,-65534,16,14,0,0,"",0,0,0,0,940,'',[
minilines(16,14,0,0,0,0,0,[
mini_line(16,11,3,0,0,0,[
str_block(0,16,11,3,0,-1,0,0,0,[
str_seg('Black','Courier',0,80640,16,11,3,0,-1,0,0,0,0,0,
	"14")])
])
])]),
text('Black',590,959,1,0,1,16,14,8792,11,3,2,0,0,0,-65534,16,14,0,0,"",0,0,0,0,970,'',[
minilines(16,14,0,0,0,0,0,[
mini_line(16,11,3,0,0,0,[
str_block(0,16,11,3,0,-1,0,0,0,[
str_seg('Black','Courier',0,80640,16,11,3,0,-1,0,0,0,0,0,
	"13")])
])
])]),
text('Black',590,989,1,0,1,16,14,8791,11,3,2,0,0,0,-65534,16,14,0,0,"",0,0,0,0,1000,'',[
minilines(16,14,0,0,0,0,0,[
mini_line(16,11,3,0,0,0,[
str_block(0,16,11,3,0,-1,0,0,0,[
str_seg('Black','Courier',0,80640,16,11,3,0,-1,0,0,0,0,0,
	"12")])
])
])]),
text('Black',590,1019,1,0,1,16,14,8790,11,3,2,0,0,0,-65534,16,14,0,0,"",0,0,0,0,1030,'',[
minilines(16,14,0,0,0,0,0,[
mini_line(16,11,3,0,0,0,[
str_block(0,16,11,3,0,-1,0,0,0,[
str_seg('Black','Courier',0,80640,16,11,3,0,-1,0,0,0,0,0,
	"11")])
])
])]),
text('Black',590,1049,1,0,1,16,14,8789,11,3,2,0,0,0,-65534,16,14,0,0,"",0,0,0,0,1060,'',[
minilines(16,14,0,0,0,0,0,[
mini_line(16,11,3,0,0,0,[
str_block(0,16,11,3,0,-1,0,0,0,[
str_seg('Black','Courier',0,80640,16,11,3,0,-1,0,0,0,0,0,
	"10")])
])
])]),
text('Black',600,1079,1,0,1,8,14,8788,11,3,2,0,0,0,-65534,8,14,0,0,"",0,0,0,0,1090,'',[
minilines(8,14,0,0,0,0,0,[
mini_line(8,11,3,0,0,0,[
str_block(0,8,11,3,0,-1,0,0,0,[
str_seg('Black','Courier',0,80640,8,11,3,0,-1,0,0,0,0,0,
	"9")])
])
])]),
text('Black',600,1109,1,0,1,8,14,8787,11,3,2,0,0,0,-65534,8,14,0,0,"",0,0,0,0,1120,'',[
minilines(8,14,0,0,0,0,0,[
mini_line(8,11,3,0,0,0,[
str_block(0,8,11,3,0,-1,0,0,0,[
str_seg('Black','Courier',0,80640,8,11,3,0,-1,0,0,0,0,0,
	"8")])
])
])]),
group([
poly('Black','',2,[
	550,980,580,950],0,3,1,8786,0,0,0,0,0,0,0,'3',0,0,
    "0","",[
    0,12,5,0,'12','5','0'],[0,12,5,0,'12','5','0'],[
]),
poly('Black','',2,[
	550,950,580,980],0,3,1,8785,0,0,0,0,0,0,0,'3',0,0,
    "0","",[
    0,12,5,0,'12','5','0'],[0,12,5,0,'12','5','0'],[
])
],
8784,0,0,[
]),
group([
poly('Black','',2,[
	550,1010,580,980],0,3,1,8783,0,0,0,0,0,0,0,'3',0,0,
    "0","",[
    0,12,5,0,'12','5','0'],[0,12,5,0,'12','5','0'],[
]),
poly('Black','',2,[
	550,980,580,1010],0,3,1,8782,0,0,0,0,0,0,0,'3',0,0,
    "0","",[
    0,12,5,0,'12','5','0'],[0,12,5,0,'12','5','0'],[
])
],
8781,0,0,[
]),
group([
poly('Black','',2,[
	550,1040,580,1010],0,3,1,8780,0,0,0,0,0,0,0,'3',0,0,
    "0","",[
    0,12,5,0,'12','5','0'],[0,12,5,0,'12','5','0'],[
]),
poly('Black','',2,[
	550,1010,580,1040],0,3,1,8779,0,0,0,0,0,0,0,'3',0,0,
    "0","",[
    0,12,5,0,'12','5','0'],[0,12,5,0,'12','5','0'],[
])
],
8778,0,0,[
]),
group([
poly('Black','',2,[
	550,1070,580,1040],0,3,1,8777,0,0,0,0,0,0,0,'3',0,0,
    "0","",[
    0,12,5,0,'12','5','0'],[0,12,5,0,'12','5','0'],[
]),
poly('Black','',2,[
	550,1040,580,1070],0,3,1,8776,0,0,0,0,0,0,0,'3',0,0,
    "0","",[
    0,12,5,0,'12','5','0'],[0,12,5,0,'12','5','0'],[
])
],
8775,0,0,[
]),
group([
poly('Black','',2,[
	550,1100,580,1070],0,3,1,8774,0,0,0,0,0,0,0,'3',0,0,
    "0","",[
    0,12,5,0,'12','5','0'],[0,12,5,0,'12','5','0'],[
]),
poly('Black','',2,[
	550,1070,580,1100],0,3,1,8773,0,0,0,0,0,0,0,'3',0,0,
    "0","",[
    0,12,5,0,'12','5','0'],[0,12,5,0,'12','5','0'],[
])
],
8772,0,0,[
]),
group([
poly('Black','',2,[
	550,1130,580,1100],0,3,1,8771,0,0,0,0,0,0,0,'3',0,0,
    "0","",[
    0,12,5,0,'12','5','0'],[0,12,5,0,'12','5','0'],[
]),
poly('Black','',2,[
	550,1100,580,1130],0,3,1,8770,0,0,0,0,0,0,0,'3',0,0,
    "0","",[
    0,12,5,0,'12','5','0'],[0,12,5,0,'12','5','0'],[
])
],
8769,0,0,[
]),
group([
poly('Black','',2,[
	550,950,580,920],0,3,1,8768,0,0,0,0,0,0,0,'3',0,0,
    "0","",[
    0,12,5,0,'12','5','0'],[0,12,5,0,'12','5','0'],[
]),
poly('Black','',2,[
	550,920,580,950],0,3,1,8767,0,0,0,0,0,0,0,'3',0,0,
    "0","",[
    0,12,5,0,'12','5','0'],[0,12,5,0,'12','5','0'],[
])
],
8766,0,0,[
]),
poly('Black','',2,[
	580,920,580,1130],0,1,1,8765,0,0,0,0,0,0,0,'1',0,0,
    "0","",[
    0,8,3,0,'8','3','0'],[0,8,3,0,'8','3','0'],[
]),
poly('Black','',2,[
	550,920,550,1130],0,1,1,8764,0,0,0,0,0,0,0,'1',0,0,
    "0","",[
    0,8,3,0,'8','3','0'],[0,8,3,0,'8','3','0'],[
]),
poly('Black','',2,[
	520,1130,520,920],0,1,1,8763,0,0,0,0,0,0,0,'1',0,0,
    "0","",[
    0,8,3,0,'8','3','0'],[0,8,3,0,'8','3','0'],[
]),
poly('Black','',2,[
	610,950,550,950],0,1,1,8762,0,0,0,0,0,0,0,'1',0,0,
    "0","",[
    0,8,3,0,'8','3','0'],[0,8,3,0,'8','3','0'],[
]),
poly('Black','',2,[
	520,950,490,950],0,1,1,8761,0,0,0,0,0,0,0,'1',0,0,
    "0","",[
    0,8,3,0,'8','3','0'],[0,8,3,0,'8','3','0'],[
]),
poly('Black','',2,[
	610,980,550,980],0,1,1,8760,0,0,0,0,0,0,0,'1',0,0,
    "0","",[
    0,8,3,0,'8','3','0'],[0,8,3,0,'8','3','0'],[
]),
poly('Black','',2,[
	520,980,490,980],0,1,1,8759,0,0,0,0,0,0,0,'1',0,0,
    "0","",[
    0,8,3,0,'8','3','0'],[0,8,3,0,'8','3','0'],[
]),
poly('Black','',2,[
	610,1010,550,1010],0,1,1,8758,0,0,0,0,0,0,0,'1',0,0,
    "0","",[
    0,8,3,0,'8','3','0'],[0,8,3,0,'8','3','0'],[
]),
poly('Black','',2,[
	520,1010,490,1010],0,1,1,8757,0,0,0,0,0,0,0,'1',0,0,
    "0","",[
    0,8,3,0,'8','3','0'],[0,8,3,0,'8','3','0'],[
]),
poly('Black','',2,[
	490,1040,520,1040],0,1,1,8756,0,0,0,0,0,0,0,'1',0,0,
    "0","",[
    0,8,3,0,'8','3','0'],[0,8,3,0,'8','3','0'],[
]),
poly('Black','',2,[
	550,1040,610,1040],0,1,1,8755,0,0,0,0,0,0,0,'1',0,0,
    "0","",[
    0,8,3,0,'8','3','0'],[0,8,3,0,'8','3','0'],[
]),
poly('Black','',2,[
	490,1070,520,1070],0,1,1,8754,0,0,0,0,0,0,0,'1',0,0,
    "0","",[
    0,8,3,0,'8','3','0'],[0,8,3,0,'8','3','0'],[
]),
poly('Black','',2,[
	550,1070,610,1070],0,1,1,8753,0,0,0,0,0,0,0,'1',0,0,
    "0","",[
    0,8,3,0,'8','3','0'],[0,8,3,0,'8','3','0'],[
]),
poly('Black','',2,[
	490,1100,520,1100],0,1,1,8752,0,0,0,0,0,0,0,'1',0,0,
    "0","",[
    0,8,3,0,'8','3','0'],[0,8,3,0,'8','3','0'],[
]),
poly('Black','',2,[
	550,1100,610,1100],0,1,1,8751,0,0,0,0,0,0,0,'1',0,0,
    "0","",[
    0,8,3,0,'8','3','0'],[0,8,3,0,'8','3','0'],[
]),
poly('Black','',3,[
	535,920,550,940,565,920],0,2,1,8750,1,2,0,0,0,0,0,'2',0,0,
    "4","",[
    0,10,4,0,'10','4','0'],[0,10,4,0,'10','4','0'],[
])
],
8749,0,0,[
]).
text('Black',525,959,1,0,1,16,14,4420,11,3,0,0,0,0,-65534,16,14,0,0,"",0,0,0,0,970,'',[
minilines(16,14,0,0,0,0,0,[
mini_line(16,11,3,0,0,0,[
str_block(0,16,11,3,0,-1,0,0,0,[
str_seg('Black','Courier',0,80640,16,11,3,0,-1,0,0,0,0,0,
	"U3")])
])
])]).
text('Black',574,1082,1,0,1,16,81,4415,11,3,0,0,0,0,-65534,72,14,0,0,"",0,1,0,0,1095,'',[
	574,1082,574,1082,655,1098,-5.23869e-13,-1000,1000,-5.23869e-13,-46,0,573,1081,656,1099],[
minilines(72,14,0,0,0,0,0,[
mini_line(72,11,3,0,0,0,[
str_block(0,72,11,3,0,0,0,0,0,[
str_seg('Black','Courier',0,80640,72,11,3,0,0,0,0,0,0,0,
	"ATtiny84A")])
])
])]).
group([
box('Black','',490,500,610,710,2,2,1,8912,0,0,0,0,0,'2',0,[
]),
poly('Black','',2,[
	550,500,550,505],0,2,1,8911,0,2,0,0,0,0,0,'2',0,0,
    "0","",[
    0,10,4,0,'10','4','0'],[0,10,4,0,'10','4','0'],[
]),
text('Black',500,509,1,0,1,8,14,8910,11,3,2,0,0,0,-65534,8,14,0,0,"",0,0,0,0,520,'',[
minilines(8,14,0,0,0,0,0,[
mini_line(8,11,3,0,0,0,[
str_block(0,8,11,3,0,-1,0,0,0,[
str_seg('Black','Courier',0,80640,8,11,3,0,-1,0,0,0,0,0,
	"1")])
])
])]),
text('Black',500,539,1,0,1,8,14,8909,11,3,2,0,0,0,-65534,8,14,0,0,"",0,0,0,0,550,'',[
minilines(8,14,0,0,0,0,0,[
mini_line(8,11,3,0,0,0,[
str_block(0,8,11,3,0,-1,0,0,0,[
str_seg('Black','Courier',0,80640,8,11,3,0,-1,0,0,0,0,0,
	"2")])
])
])]),
text('Black',500,569,1,0,1,8,14,8908,11,3,2,0,0,0,-65534,8,14,0,0,"",0,0,0,0,580,'',[
minilines(8,14,0,0,0,0,0,[
mini_line(8,11,3,0,0,0,[
str_block(0,8,11,3,0,-1,0,0,0,[
str_seg('Black','Courier',0,80640,8,11,3,0,-1,0,0,0,0,0,
	"3")])
])
])]),
text('Black',500,599,1,0,1,8,14,8907,11,3,2,0,0,0,-65534,8,14,0,0,"",0,0,0,0,610,'',[
minilines(8,14,0,0,0,0,0,[
mini_line(8,11,3,0,0,0,[
str_block(0,8,11,3,0,-1,0,0,0,[
str_seg('Black','Courier',0,80640,8,11,3,0,-1,0,0,0,0,0,
	"4")])
])
])]),
text('Black',500,629,1,0,1,8,14,8906,11,3,2,0,0,0,-65534,8,14,0,0,"",0,0,0,0,640,'',[
minilines(8,14,0,0,0,0,0,[
mini_line(8,11,3,0,0,0,[
str_block(0,8,11,3,0,-1,0,0,0,[
str_seg('Black','Courier',0,80640,8,11,3,0,-1,0,0,0,0,0,
	"5")])
])
])]),
text('Black',500,659,1,0,1,8,14,8905,11,3,2,0,0,0,-65534,8,14,0,0,"",0,0,0,0,670,'',[
minilines(8,14,0,0,0,0,0,[
mini_line(8,11,3,0,0,0,[
str_block(0,8,11,3,0,-1,0,0,0,[
str_seg('Black','Courier',0,80640,8,11,3,0,-1,0,0,0,0,0,
	"6")])
])
])]),
text('Black',500,689,1,0,1,8,14,8904,11,3,2,0,0,0,-65534,8,14,0,0,"",0,0,0,0,700,'',[
minilines(8,14,0,0,0,0,0,[
mini_line(8,11,3,0,0,0,[
str_block(0,8,11,3,0,-1,0,0,0,[
str_seg('Black','Courier',0,80640,8,11,3,0,-1,0,0,0,0,0,
	"7")])
])
])]),
text('Black',590,509,1,0,1,16,14,8903,11,3,2,0,0,0,-65534,16,14,0,0,"",0,0,0,0,520,'',[
minilines(16,14,0,0,0,0,0,[
mini_line(16,11,3,0,0,0,[
str_block(0,16,11,3,0,-1,0,0,0,[
str_seg('Black','Courier',0,80640,16,11,3,0,-1,0,0,0,0,0,
	"14")])
])
])]),
text('Black',590,539,1,0,1,16,14,8902,11,3,2,0,0,0,-65534,16,14,0,0,"",0,0,0,0,550,'',[
minilines(16,14,0,0,0,0,0,[
mini_line(16,11,3,0,0,0,[
str_block(0,16,11,3,0,-1,0,0,0,[
str_seg('Black','Courier',0,80640,16,11,3,0,-1,0,0,0,0,0,
	"13")])
])
])]),
text('Black',590,569,1,0,1,16,14,8901,11,3,2,0,0,0,-65534,16,14,0,0,"",0,0,0,0,580,'',[
minilines(16,14,0,0,0,0,0,[
mini_line(16,11,3,0,0,0,[
str_block(0,16,11,3,0,-1,0,0,0,[
str_seg('Black','Courier',0,80640,16,11,3,0,-1,0,0,0,0,0,
	"12")])
])
])]),
text('Black',590,599,1,0,1,16,14,8900,11,3,2,0,0,0,-65534,16,14,0,0,"",0,0,0,0,610,'',[
minilines(16,14,0,0,0,0,0,[
mini_line(16,11,3,0,0,0,[
str_block(0,16,11,3,0,-1,0,0,0,[
str_seg('Black','Courier',0,80640,16,11,3,0,-1,0,0,0,0,0,
	"11")])
])
])]),
text('Black',590,629,1,0,1,16,14,8899,11,3,2,0,0,0,-65534,16,14,0,0,"",0,0,0,0,640,'',[
minilines(16,14,0,0,0,0,0,[
mini_line(16,11,3,0,0,0,[
str_block(0,16,11,3,0,-1,0,0,0,[
str_seg('Black','Courier',0,80640,16,11,3,0,-1,0,0,0,0,0,
	"10")])
])
])]),
text('Black',600,659,1,0,1,8,14,8898,11,3,2,0,0,0,-65534,8,14,0,0,"",0,0,0,0,670,'',[
minilines(8,14,0,0,0,0,0,[
mini_line(8,11,3,0,0,0,[
str_block(0,8,11,3,0,-1,0,0,0,[
str_seg('Black','Courier',0,80640,8,11,3,0,-1,0,0,0,0,0,
	"9")])
])
])]),
text('Black',600,689,1,0,1,8,14,8897,11,3,2,0,0,0,-65534,8,14,0,0,"",0,0,0,0,700,'',[
minilines(8,14,0,0,0,0,0,[
mini_line(8,11,3,0,0,0,[
str_block(0,8,11,3,0,-1,0,0,0,[
str_seg('Black','Courier',0,80640,8,11,3,0,-1,0,0,0,0,0,
	"8")])
])
])]),
group([
poly('Black','',2,[
	550,560,580,530],0,3,1,8896,0,0,0,0,0,0,0,'3',0,0,
    "0","",[
    0,12,5,0,'12','5','0'],[0,12,5,0,'12','5','0'],[
]),
poly('Black','',2,[
	550,530,580,560],0,3,1,8895,0,0,0,0,0,0,0,'3',0,0,
    "0","",[
    0,12,5,0,'12','5','0'],[0,12,5,0,'12','5','0'],[
])
],
8894,0,0,[
]),
group([
poly('Black','',2,[
	550,590,580,560],0,3,1,8893,0,0,0,0,0,0,0,'3',0,0,
    "0","",[
    0,12,5,0,'12','5','0'],[0,12,5,0,'12','5','0'],[
]),
poly('Black','',2,[
	550,560,580,590],0,3,1,8892,0,0,0,0,0,0,0,'3',0,0,
    "0","",[
    0,12,5,0,'12','5','0'],[0,12,5,0,'12','5','0'],[
])
],
8891,0,0,[
]),
group([
poly('Black','',2,[
	550,620,580,590],0,3,1,8890,0,0,0,0,0,0,0,'3',0,0,
    "0","",[
    0,12,5,0,'12','5','0'],[0,12,5,0,'12','5','0'],[
]),
poly('Black','',2,[
	550,590,580,620],0,3,1,8889,0,0,0,0,0,0,0,'3',0,0,
    "0","",[
    0,12,5,0,'12','5','0'],[0,12,5,0,'12','5','0'],[
])
],
8888,0,0,[
]),
group([
poly('Black','',2,[
	550,650,580,620],0,3,1,8887,0,0,0,0,0,0,0,'3',0,0,
    "0","",[
    0,12,5,0,'12','5','0'],[0,12,5,0,'12','5','0'],[
]),
poly('Black','',2,[
	550,620,580,650],0,3,1,8886,0,0,0,0,0,0,0,'3',0,0,
    "0","",[
    0,12,5,0,'12','5','0'],[0,12,5,0,'12','5','0'],[
])
],
8885,0,0,[
]),
group([
poly('Black','',2,[
	550,680,580,650],0,3,1,8884,0,0,0,0,0,0,0,'3',0,0,
    "0","",[
    0,12,5,0,'12','5','0'],[0,12,5,0,'12','5','0'],[
]),
poly('Black','',2,[
	550,650,580,680],0,3,1,8883,0,0,0,0,0,0,0,'3',0,0,
    "0","",[
    0,12,5,0,'12','5','0'],[0,12,5,0,'12','5','0'],[
])
],
8882,0,0,[
]),
group([
poly('Black','',2,[
	550,710,580,680],0,3,1,8881,0,0,0,0,0,0,0,'3',0,0,
    "0","",[
    0,12,5,0,'12','5','0'],[0,12,5,0,'12','5','0'],[
]),
poly('Black','',2,[
	550,680,580,710],0,3,1,8880,0,0,0,0,0,0,0,'3',0,0,
    "0","",[
    0,12,5,0,'12','5','0'],[0,12,5,0,'12','5','0'],[
])
],
8879,0,0,[
]),
group([
poly('Black','',2,[
	550,530,580,500],0,3,1,8878,0,0,0,0,0,0,0,'3',0,0,
    "0","",[
    0,12,5,0,'12','5','0'],[0,12,5,0,'12','5','0'],[
]),
poly('Black','',2,[
	550,500,580,530],0,3,1,8877,0,0,0,0,0,0,0,'3',0,0,
    "0","",[
    0,12,5,0,'12','5','0'],[0,12,5,0,'12','5','0'],[
])
],
8876,0,0,[
]),
poly('Black','',2,[
	580,500,580,710],0,1,1,8875,0,0,0,0,0,0,0,'1',0,0,
    "0","",[
    0,8,3,0,'8','3','0'],[0,8,3,0,'8','3','0'],[
]),
poly('Black','',2,[
	550,500,550,710],0,1,1,8874,0,0,0,0,0,0,0,'1',0,0,
    "0","",[
    0,8,3,0,'8','3','0'],[0,8,3,0,'8','3','0'],[
]),
poly('Black','',2,[
	520,710,520,500],0,1,1,8873,0,0,0,0,0,0,0,'1',0,0,
    "0","",[
    0,8,3,0,'8','3','0'],[0,8,3,0,'8','3','0'],[
]),
poly('Black','',2,[
	610,530,550,530],0,1,1,8872,0,0,0,0,0,0,0,'1',0,0,
    "0","",[
    0,8,3,0,'8','3','0'],[0,8,3,0,'8','3','0'],[
]),
poly('Black','',2,[
	520,530,490,530],0,1,1,8871,0,0,0,0,0,0,0,'1',0,0,
    "0","",[
    0,8,3,0,'8','3','0'],[0,8,3,0,'8','3','0'],[
]),
poly('Black','',2,[
	610,560,550,560],0,1,1,8870,0,0,0,0,0,0,0,'1',0,0,
    "0","",[
    0,8,3,0,'8','3','0'],[0,8,3,0,'8','3','0'],[
]),
poly('Black','',2,[
	520,560,490,560],0,1,1,8869,0,0,0,0,0,0,0,'1',0,0,
    "0","",[
    0,8,3,0,'8','3','0'],[0,8,3,0,'8','3','0'],[
]),
poly('Black','',2,[
	610,590,550,590],0,1,1,8868,0,0,0,0,0,0,0,'1',0,0,
    "0","",[
    0,8,3,0,'8','3','0'],[0,8,3,0,'8','3','0'],[
]),
poly('Black','',2,[
	520,590,490,590],0,1,1,8867,0,0,0,0,0,0,0,'1',0,0,
    "0","",[
    0,8,3,0,'8','3','0'],[0,8,3,0,'8','3','0'],[
]),
poly('Black','',2,[
	490,620,520,620],0,1,1,8866,0,0,0,0,0,0,0,'1',0,0,
    "0","",[
    0,8,3,0,'8','3','0'],[0,8,3,0,'8','3','0'],[
]),
poly('Black','',2,[
	550,620,610,620],0,1,1,8865,0,0,0,0,0,0,0,'1',0,0,
    "0","",[
    0,8,3,0,'8','3','0'],[0,8,3,0,'8','3','0'],[
]),
poly('Black','',2,[
	490,650,520,650],0,1,1,8864,0,0,0,0,0,0,0,'1',0,0,
    "0","",[
    0,8,3,0,'8','3','0'],[0,8,3,0,'8','3','0'],[
]),
poly('Black','',2,[
	550,650,610,650],0,1,1,8863,0,0,0,0,0,0,0,'1',0,0,
    "0","",[
    0,8,3,0,'8','3','0'],[0,8,3,0,'8','3','0'],[
]),
poly('Black','',2,[
	490,680,520,680],0,1,1,8862,0,0,0,0,0,0,0,'1',0,0,
    "0","",[
    0,8,3,0,'8','3','0'],[0,8,3,0,'8','3','0'],[
]),
poly('Black','',2,[
	550,680,610,680],0,1,1,8861,0,0,0,0,0,0,0,'1',0,0,
    "0","",[
    0,8,3,0,'8','3','0'],[0,8,3,0,'8','3','0'],[
]),
poly('Black','',3,[
	535,500,550,520,565,500],0,2,1,8860,1,2,0,0,0,0,0,'2',0,0,
    "4","",[
    0,10,4,0,'10','4','0'],[0,10,4,0,'10','4','0'],[
])
],
8859,0,0,[
]).
text('Black',525,539,1,0,1,16,14,4418,11,3,0,0,0,0,-65534,16,14,0,0,"",0,0,0,0,550,'',[
minilines(16,14,0,0,0,0,0,[
mini_line(16,11,3,0,0,0,[
str_block(0,16,11,3,0,-1,0,0,0,[
str_seg('Black','Courier',0,80640,16,11,3,0,-1,0,0,0,0,0,
	"U2")])
])
])]).
text('Black',574,662,1,0,1,16,54,4413,11,3,0,0,0,0,-65534,48,14,0,0,"",0,1,0,0,675,'',[
	574,662,574,662,628,678,-5.23869e-13,-1000,1000,-5.23869e-13,-46,0,573,661,629,679],[
minilines(48,14,0,0,0,0,0,[
mini_line(48,11,3,0,0,0,[
str_block(0,48,11,3,0,-1,0,0,0,[
str_seg('Black','Courier',0,80640,48,11,3,0,-1,0,0,0,0,0,
	"74LS07")])
])
])]).
poly('Black','',2,[
	85,905,85,605],0,2,1,8914,0,0,0,0,0,0,0,'2',0,0,
    "0","",[
    0,10,4,0,'10','4','0'],[0,10,4,0,'10','4','0'],[
]).
poly('#ff0000','',2,[
	145,245,145,430],0,2,1,8920,0,0,0,0,0,0,0,'2',0,0,
    "0","",[
    0,10,4,0,'10','4','0'],[0,10,4,0,'10','4','0'],[
]).
group([
poly('Black','',2,[
	220,230,250,200],0,3,1,8927,0,0,0,0,0,0,0,'3',0,0,
    "0","",[
    0,12,5,0,'12','5','0'],[0,12,5,0,'12','5','0'],[
]),
poly('Black','',2,[
	220,200,250,230],0,3,1,8926,0,0,0,0,0,0,0,'3',0,0,
    "0","",[
    0,12,5,0,'12','5','0'],[0,12,5,0,'12','5','0'],[
])
],
8925,0,0,[
]).
group([
box('Black','',100,200,130,260,2,2,1,8948,0,0,0,0,0,'2',0,[
]),
poly('Black','',2,[
	100,230,130,230],0,1,1,8947,1,2,0,0,0,0,0,'1',0,0,
    "0","",[
    0,8,3,0,'8','3','0'],[0,8,3,0,'8','3','0'],[
]),
text('Black',110,209,1,0,1,8,14,8946,11,3,2,0,0,0,-65534,8,14,0,0,"",0,0,0,0,220,'',[
minilines(8,14,0,0,0,0,0,[
mini_line(8,11,3,0,0,0,[
str_block(0,8,11,3,0,-1,0,0,0,[
str_seg('Black','Courier',0,80640,8,11,3,0,-1,0,0,0,0,0,
	"2")])
])
])]),
text('Black',110,239,1,0,1,8,14,8945,11,3,2,0,0,0,-65534,8,14,0,0,"",0,0,0,0,250,'',[
minilines(8,14,0,0,0,0,0,[
mini_line(8,11,3,0,0,0,[
str_block(0,8,11,3,0,-1,0,0,0,[
str_seg('Black','Courier',0,80640,8,11,3,0,-1,0,0,0,0,0,
	"1")])
])
])])
],
8944,0,0,[
]).
group([
box('Black','',160,200,190,260,2,2,1,8953,0,0,0,0,0,'2',0,[
]),
poly('Black','',2,[
	160,230,190,230],0,1,1,8952,1,2,0,0,0,0,0,'1',0,0,
    "0","",[
    0,8,3,0,'8','3','0'],[0,8,3,0,'8','3','0'],[
]),
text('Black',170,209,1,0,1,8,14,8951,11,3,2,0,0,0,-65534,8,14,0,0,"",0,0,0,0,220,'',[
minilines(8,14,0,0,0,0,0,[
mini_line(8,11,3,0,0,0,[
str_block(0,8,11,3,0,-1,0,0,0,[
str_seg('Black','Courier',0,80640,8,11,3,0,-1,0,0,0,0,0,
	"2")])
])
])]),
text('Black',170,239,1,0,1,8,14,8950,11,3,2,0,0,0,-65534,8,14,0,0,"",0,0,0,0,250,'',[
minilines(8,14,0,0,0,0,0,[
mini_line(8,11,3,0,0,0,[
str_block(0,8,11,3,0,-1,0,0,0,[
str_seg('Black','Courier',0,80640,8,11,3,0,-1,0,0,0,0,0,
	"1")])
])
])])
],
8949,0,0,[
]).
text('Black',105,179,1,0,1,16,14,8954,11,3,0,0,0,0,-65534,16,14,0,0,"",0,0,0,0,190,'',[
minilines(16,14,0,0,0,0,0,[
mini_line(16,11,3,0,0,0,[
str_block(0,16,11,3,0,-1,0,0,0,[
str_seg('Black','Courier',0,80640,16,11,3,0,-1,0,0,0,0,0,
	"J8")])
])
])]).
text('Black',165,179,1,0,1,16,14,8955,11,3,0,0,0,0,-65534,16,14,0,0,"",0,0,0,0,190,'',[
minilines(16,14,0,0,0,0,0,[
mini_line(16,11,3,0,0,0,[
str_block(0,16,11,3,0,-1,0,0,0,[
str_seg('Black','Courier',0,80640,16,11,3,0,-1,0,0,0,0,0,
	"J9")])
])
])]).
group([
poly('Black','',2,[
	220,260,250,230],0,3,1,8965,0,0,0,0,0,0,0,'3',0,0,
    "0","",[
    0,12,5,0,'12','5','0'],[0,12,5,0,'12','5','0'],[
]),
poly('Black','',2,[
	220,230,250,260],0,3,1,8964,0,0,0,0,0,0,0,'3',0,0,
    "0","",[
    0,12,5,0,'12','5','0'],[0,12,5,0,'12','5','0'],[
])
],
8963,0,0,[
]).
poly('Black','',2,[
	85,215,85,305],0,2,1,8968,0,0,0,0,0,0,0,'2',0,0,
    "0","",[
    0,10,4,0,'10','4','0'],[0,10,4,0,'10','4','0'],[
]).
poly('Black','',2,[
	865,305,865,1085],0,2,1,8972,0,0,0,0,0,0,0,'2',0,0,
    "0","",[
    0,10,4,0,'10','4','0'],[0,10,4,0,'10','4','0'],[
]).
group([
box('Black','',795,235,815,285,2,2,1,8985,0,0,0,0,0,'2',0,[
]),
poly('Black','',2,[
	805,235,805,215],0,2,1,8984,1,2,0,0,0,0,0,'2',0,0,
    "0","",[
    0,10,4,0,'10','4','0'],[0,10,4,0,'10','4','0'],[
]),
poly('Black','',2,[
	805,285,805,305],0,2,1,8983,1,2,0,0,0,0,0,'2',0,0,
    "0","",[
    0,10,4,0,'10','4','0'],[0,10,4,0,'10','4','0'],[
])
],
8982,0,0,[
]).
text('Black',837,271,1,0,1,16,27,8988,11,3,0,0,0,0,-65534,24,14,0,0,"",0,1,0,0,284,'',[
	837,271,837,271,864,287,-5.23869e-13,-1000,1000,-5.23869e-13,-41,0,836,270,865,288],[
minilines(24,14,0,0,0,0,0,[
mini_line(24,11,3,0,0,0,[
str_block(0,24,11,3,0,-1,0,0,0,[
str_seg('Black','Courier',0,80640,24,11,3,0,-1,0,0,0,0,0,
	"R13")])
])
])]).
group([
poly('Black','',2,[
	595,380,595,390],0,2,1,9002,1,2,0,0,0,0,0,'2',0,0,
    "0","",[
    0,10,4,0,'10','4','0'],[0,10,4,0,'10','4','0'],[
]),
poly('Black','',2,[
	585,390,605,390],0,5,1,9003,1,2,0,0,0,0,0,'5',0,0,
    "0","",[
    0,18,7,0,'18','7','0'],[0,18,7,0,'18','7','0'],[
]),
poly('Black','',2,[
	585,400,605,400],0,5,1,9004,1,2,0,0,0,0,0,'5',0,0,
    "0","",[
    0,18,7,0,'18','7','0'],[0,18,7,0,'18','7','0'],[
]),
poly('Black','',2,[
	595,400,595,410],0,2,1,9005,1,2,0,0,0,0,0,'2',0,0,
    "0","",[
    0,10,4,0,'10','4','0'],[0,10,4,0,'10','4','0'],[
])
],
9001,0,0,[
]).
text('Black',560,389,1,0,1,16,14,9006,11,3,0,0,0,0,-65534,16,14,0,0,"",0,0,0,0,400,'',[
minilines(16,14,0,0,0,0,0,[
mini_line(16,11,3,0,0,0,[
str_block(0,16,11,3,0,-1,0,0,0,[
str_seg('Black','Courier',0,80640,16,11,3,0,-1,0,0,0,0,0,
	"C5")])
])
])]).
poly('Black','',2,[
	595,365,595,380],0,2,1,9008,0,0,0,0,0,0,0,'2',0,0,
    "0","",[
    0,10,4,0,'10','4','0'],[0,10,4,0,'10','4','0'],[
]).
poly('Black','',2,[
	595,410,595,425],0,2,1,9012,0,0,0,0,0,0,0,'2',0,0,
    "0","",[
    0,10,4,0,'10','4','0'],[0,10,4,0,'10','4','0'],[
]).
poly('Black','',2,[
	445,965,445,905],0,2,1,9016,0,0,0,0,0,0,0,'2',0,0,
    "0","",[
    0,10,4,0,'10','4','0'],[0,10,4,0,'10','4','0'],[
]).
poly('#ff0000','',2,[
	805,875,805,1055],0,2,1,9022,0,0,0,0,0,0,0,'2',0,0,
    "0","",[
    0,10,4,0,'10','4','0'],[0,10,4,0,'10','4','0'],[
]).
