%TGIF 4.2.5-QPL
state(1,37,100.000,0,150,1,16,1,0,2,2,0,0,3,0,1,0,'NewCenturySchlbk-Roman',0,80640,0,5,1,5,0,1,1,1,0,16,0,0,1,1,1,1,1485,1050,1,0,2880,0).
%
% @(#)$Header$
% %W%
%
unit("1 pixel/pixel").
color_info(50,65535,0,[
	"Black", 0, 0, 0, 0, 0, 0, 1,
	"White", 65535, 65535, 65535, 65535, 65535, 65535, 1,
	"#000080", 0, 0, 32896, 0, 0, 32768, 1,
	"#008000", 0, 32896, 0, 0, 32768, 0, 1,
	"#008080", 0, 32896, 32896, 0, 32768, 32768, 1,
	"#800000", 32896, 0, 0, 32768, 0, 0, 1,
	"#800080", 32896, 0, 32896, 32768, 0, 32768, 1,
	"#ff8000", 65535, 32896, 0, 65280, 32768, 0, 1,
	"#808080", 32896, 32896, 32896, 32768, 32768, 32768, 1,
	"#c0c0c0", 49344, 49344, 49344, 49152, 49152, 49152, 1,
	"#0000ff", 0, 0, 65535, 0, 0, 65280, 1,
	"#00ff00", 0, 65535, 0, 0, 65280, 0, 1,
	"#00ffff", 0, 65535, 65535, 0, 65280, 65280, 1,
	"#ff0000", 65535, 0, 0, 65280, 0, 0, 1,
	"#ff00ff", 65535, 0, 65535, 65280, 0, 65280, 1,
	"#ffff00", 65535, 65535, 0, 65280, 65280, 0, 1,
	"#4c4c4c", 19532, 19532, 19532, 19456, 19456, 19456, 1,
	"#b3b3b3", 46003, 46003, 46003, 45824, 45824, 45824, 1,
	"#e6e6e6", 59110, 59110, 59110, 58880, 58880, 58880, 1,
	"#dc2300", 56540, 8995, 0, 56320, 8960, 0, 1,
	"#ff3333", 65535, 13107, 13107, 65280, 13056, 13056, 1,
	"#b84747", 47288, 18247, 18247, 47104, 18176, 18176, 1,
	"#99284c", 39321, 10280, 19532, 39168, 10240, 19456, 1,
	"#94476b", 38036, 18247, 27499, 37888, 18176, 27392, 1,
	"#9966cc", 39321, 26214, 52428, 39168, 26112, 52224, 1,
	"#6b2394", 27499, 8995, 38036, 27392, 8960, 37888, 1,
	"#5e11a6", 24158, 4369, 42662, 24064, 4352, 42496, 1,
	"#4700b8", 18247, 0, 47288, 18176, 0, 47104, 1,
	"#2323dc", 8995, 8995, 56540, 8960, 8960, 56320, 1,
	"#0099ff", 0, 39321, 65535, 0, 39168, 65280, 1,
	"#99ccff", 39321, 52428, 65535, 39168, 52224, 65280, 1,
	"#00dcff", 0, 56540, 65535, 0, 56320, 65280, 1,
	"#23b8dc", 8995, 47288, 56540, 8960, 47104, 56320, 1,
	"#33a3a3", 13107, 41891, 41891, 13056, 41728, 41728, 1,
	"#355e00", 13621, 24158, 0, 13568, 24064, 0, 1,
	"#7da647", 32125, 42662, 18247, 32000, 42496, 18176, 1,
	"#00ae00", 0, 44718, 0, 0, 44544, 0, 1,
	"#3deb3d", 15677, 60395, 15677, 15616, 60160, 15616, 1,
	"#ffff99", 65535, 65535, 39321, 65280, 65280, 39168, 1,
	"#e6e64c", 59110, 59110, 19532, 58880, 58880, 19456, 1,
	"#b3b300", 46003, 46003, 0, 45824, 45824, 0, 1,
	"#666600", 26214, 26214, 0, 26112, 26112, 0, 1,
	"#4c1900", 19532, 6425, 0, 19456, 6400, 0, 1,
	"#663300", 26214, 13107, 0, 26112, 13056, 0, 1,
	"#804c19", 32896, 19532, 6425, 32768, 19456, 6400, 1,
	"#996633", 39321, 26214, 13107, 39168, 26112, 13056, 1,
	"#cc6633", 52428, 26214, 13107, 52224, 26112, 13056, 1,
	"#ff6633", 65535, 26214, 13107, 65280, 26112, 13056, 1,
	"#ff9966", 65535, 39321, 26214, 65280, 39168, 26112, 1,
	"#ffcc99", 65535, 52428, 39321, 65280, 52224, 39168, 1
]).
script_frac("0.6").
fg_bg_colors('Black','white').
dont_reencode("FFDingbests:ZapfDingbats").
objshadow_info('#c0c0c0',2,2).
rotate_pivot(0,0,0,0).
spline_tightness(1).
page(1,"",1,'').
text('Black',100,795,4,0,1,643,70,194,15,3,0,0,0,0,-65534,643,70,0,0,"",0,0,0,0,810,'',[
minilines(643,70,0,0,0,0,0,[
mini_line(368,15,3,0,0,0,[
str_block(0,368,15,3,0,-2,0,0,0,[
str_seg('Black','NewCenturySchlbk-Bold',1,80640,368,15,3,0,-2,0,0,0,0,0,
	"Joyweiler Case Back - for vertical Keystone - V 1.1")])
]),
mini_line(643,14,3,0,0,0,[
str_block(0,643,14,3,0,-1,0,0,0,[
str_seg('Black','NewCenturySchlbk-Roman',0,80640,643,14,3,0,-1,0,0,0,0,0,
	"This work is licensed under a Creative Commons Attribution-ShareAlike 4.0 International License.")])
]),
mini_line(300,14,3,0,0,0,[
str_block(0,300,14,3,0,0,0,0,0,[
str_seg('Black','NewCenturySchlbk-Roman',0,80640,300,14,3,0,0,0,0,0,0,0,
	"http://creativecommons.org/licenses/by-sa/4.0/")])
]),
mini_line(308,15,3,0,0,0,[
str_block(0,308,15,3,0,0,0,0,0,[
str_seg('Black','NewCenturySchlbk-Bold',1,80640,308,15,3,0,0,0,0,0,0,0,
	"https://gitlab.com/edge-records/joyweiler")])
])
])]).
box('Black','',50,50,1435,1000,0,1,1,204,2,0,0,0,0,'1',0,[
]).
poly('Black','',5,[
	250,500,1105,500,1100,250,255,250,250,500],0,2,1,292,0,0,0,0,0,0,0,'2',0,0,
    "00","",[
    0,10,4,0,'10','4','0'],[0,10,4,0,'10','4','0'],[
]).
poly('Black','',2,[
	670,365,680,365],0,2,1,293,0,0,0,0,0,0,0,'2',0,0,
    "0","",[
    0,10,4,0,'10','4','0'],[0,10,4,0,'10','4','0'],[
]).
poly('Black','',2,[
	675,360,675,370],0,2,1,294,0,0,0,0,0,0,0,'2',0,0,
    "0","",[
    0,10,4,0,'10','4','0'],[0,10,4,0,'10','4','0'],[
]).
poly('Black','',2,[
	675,370,675,545],0,1,1,295,0,0,0,0,0,0,0,'1',0,0,
    "0","",[
    0,8,3,0,'8','3','0'],[0,8,3,0,'8','3','0'],[
]).
poly('Black','',2,[
	250,500,250,545],0,1,1,296,0,0,0,0,0,0,0,'1',0,0,
    "0","",[
    0,8,3,0,'8','3','0'],[0,8,3,0,'8','3','0'],[
]).
poly('Black','',2,[
	255,250,255,200],0,1,1,297,0,0,0,0,0,0,0,'1',0,0,
    "0","",[
    0,8,3,0,'8','3','0'],[0,8,3,0,'8','3','0'],[
]).
poly('Black','',2,[
	675,360,675,200],0,1,1,298,0,0,0,0,0,0,0,'1',0,0,
    "0","",[
    0,8,3,0,'8','3','0'],[0,8,3,0,'8','3','0'],[
]).
poly('Black','',2,[
	680,365,940,365],0,1,1,299,0,0,0,0,0,0,0,'1',0,0,
    "0","",[
    0,8,3,0,'8','3','0'],[0,8,3,0,'8','3','0'],[
]).
poly('Black','',2,[
	250,535,675,535],3,1,1,300,0,0,0,0,0,0,0,'1',0,0,
    "0","",[
    0,8,3,0,'8','3','0'],[0,8,3,0,'8','3','0'],[
]).
poly('Black','',2,[
	255,215,675,215],3,1,1,301,0,0,0,0,0,0,0,'1',0,0,
    "0","",[
    0,8,3,0,'8','3','0'],[0,8,3,0,'8','3','0'],[
]).
poly('Black','',2,[
	935,365,935,250],3,1,1,302,0,0,0,0,0,0,0,'1',0,0,
    "0","",[
    0,8,3,0,'8','3','0'],[0,8,3,0,'8','3','0'],[
]).
text('Black',440,196,1,0,1,27,17,303,14,3,0,0,0,0,-65534,27,17,0,0,"",0,0,0,0,210,'',[
minilines(27,17,0,0,0,0,0,[
mini_line(27,14,3,0,0,0,[
str_block(0,27,14,3,0,-1,0,0,0,[
str_seg('Black','NewCenturySchlbk-Roman',0,80640,27,14,3,0,-1,0,0,0,0,0,
	"84.5")])
])
])]).
text('Black',445,516,1,0,1,27,17,307,14,3,0,0,0,0,-65534,27,17,0,0,"",0,0,0,0,530,'',[
minilines(27,17,0,0,0,0,0,[
mini_line(27,14,3,0,0,0,[
str_block(0,27,14,3,0,-1,0,0,0,[
str_seg('Black','NewCenturySchlbk-Roman',0,80640,27,14,3,0,-1,0,0,0,0,0,
	"85.5")])
])
])]).
text('Black',940,311,1,0,1,16,17,311,14,3,0,0,0,0,-65534,16,17,0,0,"",0,0,0,0,325,'',[
minilines(16,17,0,0,0,0,0,[
mini_line(16,14,3,0,0,0,[
str_block(0,16,14,3,0,-1,0,0,0,[
str_seg('Black','NewCenturySchlbk-Roman',0,80640,16,14,3,0,-1,0,0,0,0,0,
	"23")])
])
])]).
group([
box('Black','',735,340,825,390,0,2,1,441,0,0,0,0,0,'2',0,[
]),
oval('Black','',715,360,725,370,0,1,1,467,0,0,0,0,0,'1',0,[
]),
oval('Black','',835,360,845,370,0,1,1,468,0,0,0,0,0,'1',0,[
])
],
472,0,0,[
]).
poly('Black','',2,[
	735,390,735,450],0,1,1,475,0,0,0,0,0,0,0,'1',0,0,
    "0","",[
    0,8,3,0,'8','3','0'],[0,8,3,0,'8','3','0'],[
]).
poly('Black','',2,[
	825,390,825,450],0,1,1,476,0,0,0,0,0,0,0,'1',0,0,
    "0","",[
    0,8,3,0,'8','3','0'],[0,8,3,0,'8','3','0'],[
]).
poly('Black','',2,[
	720,365,720,290],0,1,1,477,0,0,0,0,0,0,0,'1',0,0,
    "0","",[
    0,8,3,0,'8','3','0'],[0,8,3,0,'8','3','0'],[
]).
poly('Black','',2,[
	840,365,840,290],0,1,1,478,0,0,0,0,0,0,0,'1',0,0,
    "0","",[
    0,8,3,0,'8','3','0'],[0,8,3,0,'8','3','0'],[
]).
poly('Black','',2,[
	825,340,870,340],0,1,1,479,0,0,0,0,0,0,0,'1',0,0,
    "0","",[
    0,8,3,0,'8','3','0'],[0,8,3,0,'8','3','0'],[
]).
poly('Black','',2,[
	825,390,870,390],0,1,1,480,0,0,0,0,0,0,0,'1',0,0,
    "0","",[
    0,8,3,0,'8','3','0'],[0,8,3,0,'8','3','0'],[
]).
poly('Black','',2,[
	675,440,735,440],3,1,1,481,0,0,0,0,0,0,0,'1',0,0,
    "0","",[
    0,8,3,0,'8','3','0'],[0,8,3,0,'8','3','0'],[
]).
poly('Black','',2,[
	735,440,825,440],3,1,1,482,0,0,0,0,0,0,0,'1',0,0,
    "0","",[
    0,8,3,0,'8','3','0'],[0,8,3,0,'8','3','0'],[
]).
poly('Black','',2,[
	675,300,720,300],3,1,1,485,0,0,0,0,0,0,0,'1',0,0,
    "0","",[
    0,8,3,0,'8','3','0'],[0,8,3,0,'8','3','0'],[
]).
poly('Black','',2,[
	720,300,840,300],3,1,1,486,0,0,0,0,0,0,0,'1',0,0,
    "0","",[
    0,8,3,0,'8','3','0'],[0,8,3,0,'8','3','0'],[
]).
poly('Black','',2,[
	860,340,860,250],3,1,1,487,0,0,0,0,0,0,0,'1',0,0,
    "0","",[
    0,8,3,0,'8','3','0'],[0,8,3,0,'8','3','0'],[
]).
poly('Black','',2,[
	860,340,860,390],3,1,1,488,0,0,0,0,0,0,0,'1',0,0,
    "0","",[
    0,8,3,0,'8','3','0'],[0,8,3,0,'8','3','0'],[
]).
text('Black',705,421,1,0,1,16,17,489,14,3,0,0,0,0,-65534,16,17,0,0,"",0,0,0,0,435,'',[
minilines(16,17,0,0,0,0,0,[
mini_line(16,14,3,0,0,0,[
str_block(0,16,14,3,0,-1,0,0,0,[
str_seg('Black','NewCenturySchlbk-Roman',0,80640,16,14,3,0,-1,0,0,0,0,0,
	"12")])
])
])]).
text('Black',765,421,1,0,1,16,17,491,14,3,0,0,0,0,-65534,16,17,0,0,"",0,0,0,0,435,'',[
minilines(16,17,0,0,0,0,0,[
mini_line(16,14,3,0,0,0,[
str_block(0,16,14,3,0,-1,0,0,0,[
str_seg('Black','NewCenturySchlbk-Roman',0,80640,16,14,3,0,-1,0,0,0,0,0,
	"18")])
])
])]).
text('Black',690,281,1,0,1,19,17,493,14,3,0,0,0,0,-65534,19,17,0,0,"",0,0,0,0,295,'',[
minilines(19,17,0,0,0,0,0,[
mini_line(19,14,3,0,0,0,[
str_block(0,19,14,3,0,-1,0,0,0,[
str_seg('Black','NewCenturySchlbk-Roman',0,80640,19,14,3,0,-1,0,0,0,0,0,
	"8.5")])
])
])]).
text('Black',765,281,1,0,1,16,17,495,14,3,0,0,0,0,-65534,16,17,0,0,"",0,0,0,0,295,'',[
minilines(16,17,0,0,0,0,0,[
mini_line(16,14,3,0,0,0,[
str_block(0,16,14,3,0,-1,0,0,0,[
str_seg('Black','NewCenturySchlbk-Roman',0,80640,16,14,3,0,-1,0,0,0,0,0,
	"25")])
])
])]).
text('Black',865,346,1,0,1,16,17,497,14,3,0,0,0,0,-65534,16,17,0,0,"",0,0,0,0,360,'',[
minilines(16,17,0,0,0,0,0,[
mini_line(16,14,3,0,0,0,[
str_block(0,16,14,3,0,-1,0,0,0,[
str_seg('Black','NewCenturySchlbk-Roman',0,80640,16,14,3,0,-1,0,0,0,0,0,
	"10")])
])
])]).
text('Black',865,301,1,0,1,16,17,499,14,3,0,0,0,0,-65534,16,17,0,0,"",0,0,0,0,315,'',[
minilines(16,17,0,0,0,0,0,[
mini_line(16,14,3,0,0,0,[
str_block(0,16,14,3,0,-1,0,0,0,[
str_seg('Black','NewCenturySchlbk-Roman',0,80640,16,14,3,0,-1,0,0,0,0,0,
	"18")])
])
])]).
poly('Black','',2,[
	835,365,835,475],0,1,1,504,0,0,0,0,0,0,0,'1',0,0,
    "0","",[
    0,8,3,0,'8','3','0'],[0,8,3,0,'8','3','0'],[
]).
poly('Black','',2,[
	845,365,845,475],0,1,1,505,0,0,0,0,0,0,0,'1',0,0,
    "0","",[
    0,8,3,0,'8','3','0'],[0,8,3,0,'8','3','0'],[
]).
poly('Black','',2,[
	835,465,845,465],0,1,1,506,0,0,0,0,0,0,0,'1',0,0,
    "0","",[
    0,8,3,0,'8','3','0'],[0,8,3,0,'8','3','0'],[
]).
poly('Black','',2,[
	860,465,845,465],1,1,1,507,0,0,0,0,0,0,0,'1',0,0,
    "0","",[
    0,8,3,0,'8','3','0'],[0,8,3,0,'8','3','0'],[
]).
poly('Black','',2,[
	820,465,835,465],1,1,1,508,0,0,0,0,0,0,0,'1',0,0,
    "0","",[
    0,8,3,0,'8','3','0'],[0,8,3,0,'8','3','0'],[
]).
text('Black',830,476,1,0,1,19,17,509,14,3,0,0,0,0,-65534,19,17,0,0,"",0,0,0,0,490,'',[
minilines(19,17,0,0,0,0,0,[
mini_line(19,14,3,0,0,0,[
str_block(0,19,14,3,0,-1,0,0,0,[
str_seg('Black','NewCenturySchlbk-Roman',0,80640,19,14,3,0,-1,0,0,0,0,0,
	"3.2")])
])
])]).
box('Black','',350,235,500,250,0,2,1,514,0,0,0,0,0,'2',0,[
]).
box('Black','',850,235,1000,250,0,2,1,515,0,0,0,0,0,'2',0,[
]).
polygon('Black','',5,[
	565,250,635,250,630,175,570,175,565,250],0,2,1,0,533,0,0,0,0,0,'2',0,
    "00",[
]).
group([
polygon('Black','',5,[
	715,250,755,250,755,245,715,245,715,250],0,2,1,0,534,0,0,0,0,0,'2',0,
    "00",[
]),
polygon('Black','',5,[
	730,245,740,180,750,180,740,245,730,245],0,2,1,0,535,0,0,0,0,0,'2',0,
    "00",[
])
],
548,0,0,[
]).
poly('Black','',2,[
	615,310,640,310],0,1,1,625,0,0,0,0,0,0,0,'1',0,0,
    "0","",[
    0,8,3,0,'8','3','0'],[0,8,3,0,'8','3','0'],[
]).
group([
box('Black','',530,310,615,425,0,2,1,752,0,0,0,0,0,'2',0,[
]),
box('Black','',525,280,620,455,0,1,1,753,2,0,0,0,0,'1',0,[
]),
oval('Black','',570,290,580,300,0,1,1,772,0,0,0,0,0,'1',0,[
]),
oval('Black','',570,435,580,445,0,1,1,781,0,0,0,0,0,'1',0,[
])
],
791,0,0,[
]).
poly('Black','',2,[
	615,425,640,425],0,1,1,793,0,0,0,0,0,0,0,'1',0,0,
    "0","",[
    0,8,3,0,'8','3','0'],[0,8,3,0,'8','3','0'],[
]).
poly('Black','',2,[
	630,310,630,250],3,1,1,794,0,0,0,0,0,0,0,'1',0,0,
    "0","",[
    0,8,3,0,'8','3','0'],[0,8,3,0,'8','3','0'],[
]).
poly('Black','',2,[
	630,310,630,365],3,1,1,795,0,0,0,0,0,0,0,'1',0,0,
    "0","",[
    0,8,3,0,'8','3','0'],[0,8,3,0,'8','3','0'],[
]).
text('Black',635,271,1,0,1,27,17,799,14,3,0,0,0,0,-65534,27,17,0,0,"",0,0,0,0,285,'',[
minilines(27,17,0,0,0,0,0,[
mini_line(27,14,3,0,0,0,[
str_block(0,27,14,3,0,-1,0,0,0,[
str_seg('Black','NewCenturySchlbk-Roman',0,80640,27,14,3,0,-1,0,0,0,0,0,
	"11.5")])
])
])]).
text('Black',635,331,1,0,1,27,17,803,14,3,0,0,0,0,-65534,27,17,0,0,"",0,0,0,0,345,'',[
minilines(27,17,0,0,0,0,0,[
mini_line(27,14,3,0,0,0,[
str_block(0,27,14,3,0,-1,0,0,0,[
str_seg('Black','NewCenturySchlbk-Roman',0,80640,27,14,3,0,-1,0,0,0,0,0,
	"11.5")])
])
])]).
poly('Black','',2,[
	670,365,615,365],0,1,1,805,0,0,0,0,0,0,0,'1',0,0,
    "0","",[
    0,8,3,0,'8','3','0'],[0,8,3,0,'8','3','0'],[
]).
text('Black',635,386,1,0,1,27,17,807,14,3,0,0,0,0,-65534,27,17,0,0,"",0,0,0,0,400,'',[
minilines(27,17,0,0,0,0,0,[
mini_line(27,14,3,0,0,0,[
str_block(0,27,14,3,0,-1,0,0,0,[
str_seg('Black','NewCenturySchlbk-Roman',0,80640,27,14,3,0,-1,0,0,0,0,0,
	"11.5")])
])
])]).
poly('Black','',2,[
	630,365,630,425],3,1,1,808,0,0,0,0,0,0,0,'1',0,0,
    "0","",[
    0,8,3,0,'8','3','0'],[0,8,3,0,'8','3','0'],[
]).
poly('Black','',2,[
	530,425,505,425],0,1,1,809,0,0,0,0,0,0,0,'1',0,0,
    "0","",[
    0,8,3,0,'8','3','0'],[0,8,3,0,'8','3','0'],[
]).
poly('Black','',2,[
	530,310,505,310],0,1,1,810,0,0,0,0,0,0,0,'1',0,0,
    "0","",[
    0,8,3,0,'8','3','0'],[0,8,3,0,'8','3','0'],[
]).
poly('Black','',2,[
	510,310,510,425],3,1,1,811,0,0,0,0,0,0,0,'1',0,0,
    "0","",[
    0,8,3,0,'8','3','0'],[0,8,3,0,'8','3','0'],[
]).
text('Black',490,356,1,0,1,16,17,812,14,3,0,0,0,0,-65534,16,17,0,0,"",0,0,0,0,370,'',[
minilines(16,17,0,0,0,0,0,[
mini_line(16,14,3,0,0,0,[
str_block(0,16,14,3,0,-1,0,0,0,[
str_seg('Black','NewCenturySchlbk-Roman',0,80640,16,14,3,0,-1,0,0,0,0,0,
	"23")])
])
])]).
poly('Black','',2,[
	575,295,465,295],0,1,1,817,0,0,0,0,0,0,0,'1',0,0,
    "0","",[
    0,8,3,0,'8','3','0'],[0,8,3,0,'8','3','0'],[
]).
poly('Black','',2,[
	575,440,465,440],0,1,1,818,0,0,0,0,0,0,0,'1',0,0,
    "0","",[
    0,8,3,0,'8','3','0'],[0,8,3,0,'8','3','0'],[
]).
poly('Black','',2,[
	475,440,475,295],3,1,1,819,0,0,0,0,0,0,0,'1',0,0,
    "0","",[
    0,8,3,0,'8','3','0'],[0,8,3,0,'8','3','0'],[
]).
poly('Black','',2,[
	475,295,475,250],3,1,1,820,0,0,0,0,0,0,0,'1',0,0,
    "0","",[
    0,8,3,0,'8','3','0'],[0,8,3,0,'8','3','0'],[
]).
text('Black',455,261,1,0,1,19,17,822,14,3,0,0,0,0,-65534,19,17,0,0,"",0,0,0,0,275,'',[
minilines(19,17,0,0,0,0,0,[
mini_line(19,14,3,0,0,0,[
str_block(0,19,14,3,0,-1,0,0,0,[
str_seg('Black','NewCenturySchlbk-Roman',0,80640,19,14,3,0,-1,0,0,0,0,0,
	"8.5")])
])
])]).
text('Black',455,356,1,0,1,16,17,824,14,3,0,0,0,0,-65534,16,17,0,0,"",0,0,0,0,370,'',[
minilines(16,17,0,0,0,0,0,[
mini_line(16,14,3,0,0,0,[
str_block(0,16,14,3,0,-1,0,0,0,[
str_seg('Black','NewCenturySchlbk-Roman',0,80640,16,14,3,0,-1,0,0,0,0,0,
	"29")])
])
])]).
poly('Black','',2,[
	615,425,615,480],0,1,1,828,0,0,0,0,0,0,0,'1',0,0,
    "0","",[
    0,8,3,0,'8','3','0'],[0,8,3,0,'8','3','0'],[
]).
poly('Black','',2,[
	530,425,530,480],0,1,1,829,0,0,0,0,0,0,0,'1',0,0,
    "0","",[
    0,8,3,0,'8','3','0'],[0,8,3,0,'8','3','0'],[
]).
poly('Black','',2,[
	675,475,615,475],3,1,1,830,0,0,0,0,0,0,0,'1',0,0,
    "0","",[
    0,8,3,0,'8','3','0'],[0,8,3,0,'8','3','0'],[
]).
poly('Black','',2,[
	615,475,530,475],3,1,1,831,0,0,0,0,0,0,0,'1',0,0,
    "0","",[
    0,8,3,0,'8','3','0'],[0,8,3,0,'8','3','0'],[
]).
text('Black',630,456,1,0,1,16,17,832,14,3,0,0,0,0,-65534,16,17,0,0,"",0,0,0,0,470,'',[
minilines(16,17,0,0,0,0,0,[
mini_line(16,14,3,0,0,0,[
str_block(0,16,14,3,0,-1,0,0,0,[
str_seg('Black','NewCenturySchlbk-Roman',0,80640,16,14,3,0,-1,0,0,0,0,0,
	"12")])
])
])]).
text('Black',565,456,1,0,1,16,17,834,14,3,0,0,0,0,-65534,16,17,0,0,"",0,0,0,0,470,'',[
minilines(16,17,0,0,0,0,0,[
mini_line(16,14,3,0,0,0,[
str_block(0,16,14,3,0,-1,0,0,0,[
str_seg('Black','NewCenturySchlbk-Roman',0,80640,16,14,3,0,-1,0,0,0,0,0,
	"17")])
])
])]).
poly('Black','',2,[
	575,295,575,265],0,1,1,840,0,0,0,0,0,0,0,'1',0,0,
    "0","",[
    0,8,3,0,'8','3','0'],[0,8,3,0,'8','3','0'],[
]).
poly('Black','',2,[
	615,310,615,265],0,1,1,841,0,0,0,0,0,0,0,'1',0,0,
    "0","",[
    0,8,3,0,'8','3','0'],[0,8,3,0,'8','3','0'],[
]).
poly('Black','',2,[
	575,270,615,270],3,1,1,842,0,0,0,0,0,0,0,'1',0,0,
    "0","",[
    0,8,3,0,'8','3','0'],[0,8,3,0,'8','3','0'],[
]).
text('Black',585,251,1,0,1,19,17,843,14,3,0,0,0,0,-65534,19,17,0,0,"",0,0,0,0,265,'',[
minilines(19,17,0,0,0,0,0,[
mini_line(19,14,3,0,0,0,[
str_block(0,19,14,3,0,-1,0,0,0,[
str_seg('Black','NewCenturySchlbk-Roman',0,80640,19,14,3,0,-1,0,0,0,0,0,
	"8.5")])
])
])]).
poly('Black','',2,[
	525,455,525,515],0,1,1,845,0,0,5,0,0,0,0,'1',0,0,
    "0","",[
    0,8,3,0,'8','3','0'],[0,8,3,0,'8','3','0'],[
]).
poly('Black','',2,[
	620,455,620,515],0,1,1,846,0,0,5,0,0,0,0,'1',0,0,
    "0","",[
    0,8,3,0,'8','3','0'],[0,8,3,0,'8','3','0'],[
]).
poly('Black','',2,[
	525,280,435,280],0,1,1,849,0,0,5,0,0,0,0,'1',0,0,
    "0","",[
    0,8,3,0,'8','3','0'],[0,8,3,0,'8','3','0'],[
]).
poly('Black','',2,[
	525,455,435,455],0,1,1,850,0,0,5,0,0,0,0,'1',0,0,
    "0","",[
    0,8,3,0,'8','3','0'],[0,8,3,0,'8','3','0'],[
]).
poly('Black','',2,[
	440,280,440,455],3,1,1,851,0,0,5,0,0,0,0,'1',0,0,
    "0","",[
    0,8,3,0,'8','3','0'],[0,8,3,0,'8','3','0'],[
]).
poly('Black','',2,[
	525,510,620,510],3,1,1,857,0,0,5,0,0,0,0,'1',0,0,
    "0","",[
    0,8,3,0,'8','3','0'],[0,8,3,0,'8','3','0'],[
]).
text('Black',565,511,1,0,1,16,17,858,14,3,0,0,0,0,-65534,16,17,0,0,"",0,0,0,0,525,'',[
minilines(16,17,0,0,0,0,0,[
mini_line(16,14,3,0,0,0,[
str_block(0,16,14,3,0,-1,0,0,0,[
str_seg('Black','NewCenturySchlbk-Roman',0,80640,16,14,3,0,-1,0,0,0,0,0,
	"19")])
])
])]).
text('Black',430,356,1,0,1,16,17,860,14,3,0,0,0,0,-65534,16,17,0,0,"",0,0,0,0,370,'',[
minilines(16,17,0,0,0,0,0,[
mini_line(16,14,3,0,0,0,[
str_block(0,16,14,3,0,-1,0,0,0,[
str_seg('Black','NewCenturySchlbk-Roman',0,80640,16,14,3,0,-1,0,0,0,0,0,
	"36")])
])
])]).
